<svg xmlns="http://www.w3.org/2000/svg" height="480" width="640" viewBox="0 0 0.5160635 3.096381">
  <path fill="red" d="M-1.806 0h4.128v1.032h-4.128z"/>
  <path fill="#00f" d="M-1.806 1.032h4.128v1.032h-4.128z"/>
  <path fill="orange" d="M-1.806 2.064h4.128v1.032h-4.128z"/>
</svg>
