<svg xmlns="http://www.w3.org/2000/svg" height="480" width="640" version="1">
  <path fill="#fff" d="M320 0h320v480H320z"/>
  <path fill="#006233" d="M0 0h320v480H0z"/>
  <path d="M424 180a120 120 0 1 0 0 120 96 96 0 1 1 0-120m4 60l-108-35.2 67.2 92V183.2l-67.2 92z" fill="#d21034"/>
</svg>
