<svg xmlns="http://www.w3.org/2000/svg" height="480" width="640" xmlns:xlink="http://www.w3.org/1999/xlink" viewBox="-18 -12 36 24">
  <defs>
    <clipPath id="a">
      <path fill-opacity=".67" d="M-18-13.5h36v27h-36z"/>
    </clipPath>
  </defs>
  <g clip-path="url(#a)">
    <path fill="#fff" d="M-18-18h36v36h-36z"/>
    <path fill="#fff" d="M-18-13.5h36v27h-36z"/>
    <path d="M0-21.586v43.172M-21.586 0h43.172" stroke="#e8112d" stroke-width="7.195" fill="none"/>
    <g transform="scale(1.75)">
      <path id="b" fill="#f9dd16" d="M-6.75 1.5L-6 .75H.75v-1.5H-6l-.75-.75z"/>
      <use xlink:href="#b" transform="rotate(90)" height="24" width="36"/>
      <use xlink:href="#b" transform="rotate(-90)" height="24" width="36"/>
      <use xlink:href="#b" transform="scale(-1)" height="24" width="36"/>
    </g>
  </g>
</svg>
