<svg xmlns="http://www.w3.org/2000/svg" height="480" width="640" version="1">
  <g fill-rule="evenodd" transform="matrix(.64143 0 0 .96773 0 0)" stroke-width="1pt">
    <rect transform="matrix(.93865 0 0 .69686 0 0)" rx="0" ry="0" width="1063" height="708.66" fill="#007308"/>
    <rect transform="matrix(.93865 0 0 .69686 0 0)" rx="0" ry="0" width="1063" y="475.56" height="236.22" fill="#bf0000"/>
    <path fill="#ffb300" d="M0 0h997.77v164.61H0z"/>
  </g>
</svg>
