<svg xmlns="http://www.w3.org/2000/svg" height="480" width="640">
  <g fill-rule="evenodd">
    <path fill="#fff" d="M0 0h640v480.003H0z"/>
    <path fill="#ab231d" d="M0 0h640v192.001H0zM0 288.002h640v192.001H0z"/>
  </g>
</svg>
