<svg xmlns="http://www.w3.org/2000/svg" height="480" width="640" version="1">
  <g stroke-width="1pt" fill-rule="evenodd">
    <path fill="#fff" d="M0 0h640v480H0z"/>
    <path fill="#00267f" d="M0 0h213.33v480H0z"/>
    <path fill="#f31830" d="M426.67 0H640v480H426.67z"/>
  </g>
</svg>
