<svg xmlns="http://www.w3.org/2000/svg" height="480" width="640">
  <g fill-rule="evenodd" stroke-width="1pt">
    <path fill="#00006a" d="M.004 0h640v480h-640z"/>
    <path d="M0 .002l318.986 304.34h65.432L72.318.145 0 .002z" fill="#fff"/>
    <path d="M360.515 304.324L48.2-.003 23.894.37l313.623 303.96h22.997z" fill="red"/>
    <path d="M384.424.002L65.437 304.342H.005L312.105.145l72.319-.144z" fill="#fff"/>
    <path d="M360.447.003L48.253 304.33l-24.296.012L337.457.003h22.989z" fill="red"/>
    <path fill="#fff" d="M161.455.004h61.505v304.332h-61.505z"/>
    <path fill="#fff" d="M.005 121.736h384.403v60.866H.005z"/>
    <path fill="red" d="M174.915.004h34.597v304.332h-34.597z"/>
    <path fill="red" d="M.005 136.959h384.403v30.433H.005z"/>
    <g>
      <path fill="#fff" d="M520.008 179.327l-19.577-14.469-20.296 13.424 7.642-23.186-18.972-15.257 24.295.139 8.567-22.854 7.384 23.27 24.26 1.134-19.728 14.243z"/>
      <path fill="red" d="M512.157 167.613l-11.58-8.375-11.837 8.007 4.35-13.66-11.237-8.844 14.273-.067 4.893-13.472 4.469 13.62 14.254.516-11.494 8.485z"/>
      <path fill="#fff" d="M444.878 304.045L425.3 289.576 405.004 303l7.643-23.186-18.973-15.257 24.296.139 8.566-22.854 7.385 23.271 24.26 1.133-19.728 14.243z"/>
      <path fill="red" d="M437.026 292.331l-11.58-8.375-11.836 8.007 4.35-13.66-11.238-8.843 14.274-.068 4.892-13.472 4.47 13.62 14.254.516-11.494 8.485z"/>
      <g>
        <path fill="#fff" d="M598.633 291.753l-19.576-14.469-20.297 13.424 7.642-23.186-18.972-15.256 24.295.138 8.567-22.853 7.384 23.27 24.26 1.133-19.727 14.244z"/>
        <path fill="red" d="M590.782 280.04l-11.58-8.376-11.836 8.007 4.35-13.66-11.238-8.843 14.274-.067 4.892-13.472 4.469 13.619 14.254.516-11.494 8.486z"/>
      </g>
      <g>
        <path fill="#fff" d="M518.261 469.17l-19.577-14.468-20.296 13.423 7.642-23.185-18.973-15.257 24.296.138 8.566-22.853 7.385 23.27 24.26 1.134-19.728 14.243z"/>
        <path fill="red" d="M510.41 457.457l-11.581-8.375-11.836 8.007 4.35-13.66-11.238-8.844 14.274-.067 4.893-13.472 4.468 13.62 14.255.516-11.494 8.485z"/>
      </g>
    </g>
  </g>
</svg>
