<svg xmlns="http://www.w3.org/2000/svg" fill-opacity="14.118" height="480" width="640" fill="#28ff09">
  <g fill-rule="evenodd" fill-opacity="1">
    <path fill="#fff" d="M212.875 0h213.95v480h-213.95z"/>
    <path fill="red" d="M0 0h212.875v480H0zM425.163 0H640v480H425.162z"/>
  </g>
</svg>
