<svg xmlns="http://www.w3.org/2000/svg" height="480" width="640" version="1" viewBox="-15 -7.5 30 15">
  <defs>
    <clipPath id="a">
      <path d="M-15-7.5h30v15h-30z"/>
    </clipPath>
  </defs>
  <path fill="#00247d" d="M-15-11.25h30v22.5h-30z"/>
  <g clip-path="url(#a)" transform="translate(0 -3.75)">
    <circle r="20" fill="#00247d"/>
    <path stroke-width="3" stroke="#fff" d="M-20-10l40 20m-40 0l40-20"/>
    <path stroke-width="2" stroke="#cf142b" d="M-20-10l40 20m-40 0l40-20"/>
    <path fill="#fff" d="M0 0l20 10h-3L-3 0m3 0l20-10h3L3 0M0 0l-20 10h-3L-3 0m3 0l-20-10h3L3 0"/>
    <path stroke-width="5" stroke="#fff" d="M-20 0h40M0-10v20"/>
    <path stroke-width="3" stroke="#cf142b" d="M-20 0h40M0-10v20"/>
  </g>
  <path d="M4.216 3.299c-.43.364-.84.896-.94 1.376-.283 1.352-.659 1.653-1.24 1.362 0 .726.637.782.916.358 0 .68.247 1.271.804 1.775.235.212.28.067.168-.167-.112-.235-.112-.994-.335-1.43.357.257.882.112.837-.592-.458.268-.913.258-.96-.38-.056-.748.236-1.833.75-2.302zM3.673-2.08c.03-.268-.027-.544-.223-.716-.379-.334-.75-.223-1.026.045-.413-.223-.633.569-1.102.435.078.257.201.368.436.279-.246.223 0 .491-.29.76.524.167.804-.123.781-.626.201.179.514.168.681-.033-.279-.09-.28-.333-.167-.559.167-.335.954-.322.91.415z" stroke="#000" stroke-width=".02954238" fill="#f7e017"/>
  <path d="M4.885 1.805c-.592.312-1.676.178-1.776-.592-.1-.77.648-1.117.849-1.217.313-.157.558.122.458.446a.507.507 0 0 0 .256-.76c.458.034.883-.312 1.061-.803-.16.153-.598.05-.959.026.112-.123.11-.361.077-.484-.38.39-.927.212-1.653 1.34.112-.39.324-1.173.447-1.686a1.27 1.27 0 0 0 .028-.155c.044-.737-.742-.75-.91-.415.184.207.088.449.022.815-.078.436-.246 1.441-.39 1.776-.045-.525-.392-.558-.459-.815-.1.067-.156.246-.134.368-.123-.134-.547.034-.703-.167-.168.335.1.67.38.815-.163.011-.202.207-.38.207.24.279.485.39.77.413s.497.128.67.475c.28.558 1.343.92 2.346.413z" stroke="#000" stroke-width=".02954238" fill="#337321"/>
  <path d="M6.359 1.123C6.024 2.05 5.108 2.71 4.694 2.81c-.703.17-2.137.867-2.522 1.225a.45.45 0 0 1-.158-.064c-.19-.134-.346-.57-.01-.938 1.049-.983 2.177-.558 2.88-1.228-.592.312-1.675.178-1.775-.592A2.727 2.727 0 0 0 5.81.409c.123.134.48.558.548.714z" stroke="#000" stroke-width=".02954238" fill="#f7e017"/>
  <path d="M4.216 3.299c-.53.45-.806 1.554-.75 2.303.015.208.074.349.162.435.04-.424.335-1.52 1.089-2.01.636-.413 1.63-1.34 1.999-2.401-.067-.19-.179-.324-.391-.458C5.96 2.17 4.98 2.65 4.215 3.298z" stroke="#000" stroke-width=".02954238" fill="#337321"/>
  <path d="M6.019.694c-.19.284-.62.675-1.033.832.089-.101.117-.23.122-.336-.525.202-1.574.18-1.999.023A2.727 2.727 0 0 0 5.812.409c.09.1.167.19.207.285z" stroke="#000" stroke-width=".02954238" fill="#316d3a"/>
  <path d="M2.003 3.033c-.853.8-.29 1.497.045 1.653-.09.558.436.491.424.96.213-.123.269-.446.235-.703.268.29.95-.034 1.094.502.09-.592-.368-1.184-.938-1.128.235-.212.1-.558-.122-.647-.045.435-.536.435-.726.301-.19-.134-.347-.57-.012-.938z" stroke="#000" stroke-width=".02954238" fill="#337321"/>
  <path d="M3.852 8.114c-.093.053-.086.173-.028.251.117.156-.082.51.296.586.112.023.198-.046.24-.173.118-.352-.257-.39-.29-.558-.034-.168-.14-.151-.218-.106z" stroke="#000" stroke-width=".02954238" fill="#f7e017"/>
  <path d="M4.17 8.773c-.125.058-.235.14-.184.541.02.167.01.57-.134.576.089.044.279.092.357-.012.075.126.246.09.313-.067.089.073.212-.05.212-.156.078.05.234-.022.195-.262.095.033.218-.034.263-.095-.14-.028-.492-.218-.576-.369-.083-.15-.301-.223-.446-.156z" stroke="#000" stroke-width=".02954238" fill="#f7e017"/>
  <g stroke="#000" stroke-width=".186" fill="none">
    <path d="M2.235-2.521c.057-.084.12-.162.19-.23M4.36-1.043c.1-.056.249-.063.415-.052M4.21 9.878c-.04-.055-.053-.29-.026-.432M4.522 9.812a.66.66 0 0 1-.198-.352M4.734 9.656c-.079-.036-.268-.282-.31-.441M4.93 9.394c-.093-.02-.375-.204-.492-.4" stroke-width=".02954238"/>
  </g>
  <path d="M10.078 3.044c1.374 1.15 1.463 2.066 1.251 2.602-.112-.502-.681-1.284-1.273-1.485l.022-1.117z" stroke="#000" stroke-width=".02954238" fill="#f7e017"/>
  <path d="M7.621 2.397h2.547v3.015c0 2.568-1.43 4.087-2.882 4.891C5.834 9.5 4.405 7.98 4.405 5.412V2.397h1.787c.003.156.017.39.2.625.422-.042.9-.357 1.23-.625z" stroke="#000" stroke-width=".02954238" fill="#337321"/>
  <path d="M10.167 2.397v3.015c0 .775-.13 1.455-.352 2.048L7.287 2.82 4.758 7.46a5.803 5.803 0 0 1-.352-2.048V2.397h5.763z" stroke="#000" stroke-width=".02954238" fill="#006ec7"/>
  <path d="M9.893 7.237a5.538 5.538 0 0 1-.189.496L7.287 3.24 4.869 7.733a5.538 5.538 0 0 1-.188-.496l2.606-4.832 2.607 4.832z" fill="#f7e017"/>
  <g stroke="#000" stroke-width=".186" fill="#f7e017">
    <path d="M8.436 8.89c.067.034.19.096.246.118.134-.268.157-.647.112-.983-.145.37-.637.358-.77.581.082.041.158.095.224.143-.167.167-.56.45-.783.516V6.87c0-.168-.056-.307-.056-.447v-.495c0-.112-.022-.274-.123-.274s-.122.162-.122.274v.495c0 .14-.056.301-.056.447v2.395c-.123-.357-.604-.235-.827-.592a.634.634 0 0 1 .268-.011c-.167-.57-.625-.614-.714-.782 0 .235-.1.782.055 1.017a.622.622 0 0 1 .152-.124c.19.413 1.043.414 1.244 1.095.162-.25.743-.54 1.15-.978z" stroke-width=".02954238"/>
    <path d="M7.286 6.897c.19 0 .793-.062 1.01-.062.057 0 .104-.084.104-.189s-.047-.19-.103-.19c-.218 0-.821-.061-1.01-.061s-.794.061-1.012.061c-.056 0-.102.085-.102.19s.046.19.102.19c.218 0 .821.061 1.011.061zM7.164 5.916a.24.24 0 0 0-.151-.053c-.127 0-.23.094-.23.21 0 .115.103.209.23.209.126 0 .228-.094.228-.21 0-.089.13-.089.13 0 0 .182-.16.328-.358.328s-.36-.146-.36-.327c0-.181.161-.328.36-.328.059 0 .115.013.164.036-.004.03-.013.086-.013.135z" stroke-width=".02954238"/>
    <path d="M6.276 6.835c.057 0 .103-.084.103-.189s-.046-.19-.103-.19" stroke-width=".02954238"/>
    <path d="M6.36 6.835c.057 0 .103-.084.103-.189s-.046-.19-.103-.19M6.911 6.874c.069 0 .124-.102.124-.228s-.055-.229-.124-.229M7.04 6.885c.071 0 .13-.107.13-.24 0-.131-.059-.238-.13-.238M7.469 6.887c.072 0 .13-.108.13-.241 0-.134-.058-.242-.13-.242M7.604 6.88c.071 0 .13-.105.13-.234 0-.13-.059-.234-.13-.234M8.203 6.84c.057 0 .104-.087.104-.194s-.047-.193-.104-.193M6.04 8.773a.85.85 0 0 1 .24-.1M8.314 8.795l-.066-.047M8.436 8.89c.156-.167.287-.357.358-.574" stroke-width=".02954238"/>
  </g>
  <g stroke="#000" stroke-width=".186">
    <path d="M6.775 4.528c0-.054.044-.078.097-.117.062-.047.088-.07.145-.07h.733c.054 0 .067.014.067.064v.997c0 .05-.013.064-.067.064h-.975V4.52" fill="#fff" stroke-width=".02954238"/>
    <path d="M7.569 5.553c.096 0 .079-.002.146-.07.07-.07.064-.064.064-.129v-.911c0-.047-.011-.06-.062-.06H7.04c-.053 0-.076.02-.134.065-.049.037-.09.059-.09.11v.995h.754z" fill="#e5e5e5" stroke-width=".02954238"/>
    <path d="M7.64 5.532c0 .05-.012.064-.067.064H6.84c-.054 0-.066-.014-.066-.064v-.997c0-.05.012-.064.066-.064h.733c.055 0 .067.014.067.064v.997z" fill="#fff" stroke-width=".02954238"/>
  </g>
  <path d="M9.062 1.813c.143.159.19.373.112.583h-.212c.089-.268.033-.524-.347-.558-.567-.05-1.228 1.05-2.222 1.184-.29-.346-.275-1.006.094-1.318-.19-.55-.593-1.154-.872-1.415a2.718 2.718 0 0 0-.529-.037c.145-.312.56-.641.894-.775.055-.08.113-.156.167-.224.034-.43 2.077-.229 2.513.039 0 .48.19 2.085.402 2.52z" stroke="#000" stroke-width=".02954238" fill="#96877d"/>
  <path d="M6.584 2.106C6.535 1.36 6.234.748 5.812.33c.2.055.614.055.893-.146.369-.245 1.329-.675 1.68-.491a.548.548 0 0 1 .023.29c-.084-.223-1.01.123-1.273.23-.251.117-.363.273-.274.625-.145-.123-.095-.24-.245-.33.061.145.111.408.128.62C6.688.98 6.588.654 6.37.465c.19.368.355 1.253.277 1.722.15 0 .483-.148.616-.254-.117.168-.455.285-.672.33-.098.117-.165.418-.16.586-.016-.207.049-.71.153-.743zM9.062 1.813c-.185-.206-.53-.318-.972-.198.067-.034.213-.09.341-.112-.017-.117-.123-.62-.14-.742l.123-.05c.062.3.14.647.19.787.04.01.129.028.207.067-.034-.118-.224-.96-.218-1.05l.168-.09c.067.458.173 1.123.3 1.388z"/>
  <g stroke="#000" stroke-width=".186" fill="#96877d">
    <path d="M8.962 2.396c.089-.268.033-.524-.346-.558-.295-.026-.614.26-.992.558h1.338zM6.494-.01a2.233 2.233 0 0 1-.732-.073.798.798 0 0 1 .056-.158c-.118.079-.34.23-.425.337.269.056.822.084 1.1-.106z" stroke-width=".02954238"/>
  </g>
  <path d="M6.487 1.704c.062.178.102.35.108.503M5.98-.523c-.1.147-.189.306-.218.44.19.062.564.095.732.073" stroke="#000" stroke-width=".02954238" fill="none"/>
  <path d="M5.615.289c.072.012.14.026.197.041.201.056.614.056.894-.145S7.744-.64 8.604-.708" stroke="#000" stroke-width=".02954238" fill="none"/>
  <path d="M5.393.096c.268.056.821.084 1.1-.106.648-.441 1.273-.698 1.898-.732" stroke="#000" stroke-width=".02954238" fill="none"/>
  <path d="M10.078 3.044c.938.648 1.63 1.273 1.832 2.279.2 1.005.58 1.273 1.05 1.005-.112.58-.693.647-1.184.2.045.67-.224 1.475-.916 1.765-.045-.402.221-.72.145-1.05-.033-.145-.044-.48.145-.636-.368.123-.949-.112-1.005-.659.425.201.972.235 1.184-.301s.123-1.452-1.25-2.603zM11.262-2.182c.29-.76 1.05-.681 1.306-.357.749-.425.85.536 1.486.346-.012.178-.224.346-.458.335.245.223-.1.558.424.76-.447.223-1.072-.012-1.24-.626-.145.29-.67.29-.882.056.458-.123.425-.548.168-.715-.259-.169-.715-.1-.804.2zM8.997-.51c.208.672.64 1.297 1.104 1.723.536.491 1.345.368 1.798-.1.01.935-.958 1.007-1.497.714-.237-.13-.43-.061-.2.145.345.313 1.103.545 1.998.737 1.564.335 1.005 1.575.547 1.564.132-.003.24-.14.05-.31-1.356-1.22-4.115-.74-4.07-3.465-.29.715-1.485.436-.927-.413.179.145.492.156.58-.067.07-.174.025-.476-.288-.736.051-.004.162 0 .15-.128.015.075.083.187.259.15.05.079.103.131.174.103.014-.006.056-.027.04-.107.013.148.19.201.282.19z" stroke="#000" stroke-width=".02954238" fill="#337321"/>
  <path d="M10.402 1.827c.648.424 1.38.424 2.055-.357.212-.246.547-.458.782-.48.234-.023.223-.246.402-.29-.112-.034-.156-.168-.324-.152.419-.145.296-.48.503-.642-.168.062-.43-.19-.67.129.061-.146-.023-.319-.084-.386.022.168-.33.201-.397.626-.037.238-.167.223-.19-.145-.016-.27-.145-1.017-.3-1.396-.157-.38-.193-.901.02-.98a.42.42 0 0 0-.133-.137c-.258-.169-.714-.1-.804.2-.29.76.525 1.196.458 2.022-.123-.614-1.117-.77-1.105-1.373-.324.145-.28.413-.157.625-.2-.313-.659.2-1.05-.223-.044.558.447.77.85.792-.202.358.066.66.334.76.011-.626 1.294-.369 1.307.703.011.916-.972.994-1.497.704zM12.2 2.71c1.564.334 1.006 1.574.548 1.563-.292-.007-.57-.252-.587-.464-.335.179-.245.53.012.67-.704-.083-1 .38-1.017.888.129-.234.52-.251.665-.2.145.05.519.077.67-.09-.123.106.078.352-.095.541.586-.022.843-.57.743-.81.759-.692.614-1.82-.939-2.099zM11.01 8.015c.1.064.088.197.02.282-.138.17.07.574-.357.642-.125.02-.218-.06-.26-.204-.116-.398.304-.425.348-.61.045-.186.163-.163.248-.11z" stroke="#000" stroke-width=".02954238" fill="#f7e017"/>
  <path d="M10.626 8.736c.138.07.256.166.182.613-.03.185-.037.635.125.648-.102.046-.316.09-.398-.028-.09.137-.279.089-.347-.089-.103.077-.234-.065-.23-.184-.089.053-.26-.035-.206-.301-.108.033-.242-.047-.29-.117.158-.025.559-.222.659-.387.1-.164.346-.236.505-.155z" stroke="#000" stroke-width=".02954238" fill="#f7e017"/>
  <g stroke="#000" stroke-width=".186" fill="none">
    <path d="M10.534 9.969c.046-.06.072-.322.047-.482M10.188 9.882a.738.738 0 0 0 .237-.384M9.958 9.697c.088-.037.311-.303.365-.479M9.751 9.395c.104-.017.427-.21.566-.424" stroke-width=".02954238"/>
  </g>
  <path d="M8.727.498c-.019 1.145.457 1.724 1.116 2.101-.245-.147-.139-.65-.469-.811.079-.006.201.106.397.061-.095-.212-.251-.536-.614-.58.095-.011.301.022.435-.028-.19-.29-.692-.151-.865-.743zM8.608-.59c-.04-.014-.075-.054-.108-.107-.176.038-.244-.074-.258-.15.01.13-.1.124-.152.128.315.26.36.563.29.737-.09.223-.402.212-.58.067-.023.474.591.63.814.033 0 .1.129.09.162.224.16-.257.04-.626-.168-.932z" stroke="#000" stroke-width=".02954238" fill="#f7e017"/>
  <g>
    <path d="M7.628-2.858a1.342 1.342 0 0 1-.397-.932c.011-.246.112-.514.47-.402-.113 0-.034.223-.152.245.095.034.224-.044.24-.095.023.079.168.056.18.146.055-.045-.006-.263-.09-.307.061-.034.095-.207.067-.29-.056.01-.14.088-.157.2.028-.09-.005-.313-.161-.346a.295.295 0 0 0 .005.296c-.145-.034-.357.061-.408.184.012-.148.032-.358.123-.491.031-.045-.044-.123-.103-.017-.109-.212-.4-.324-.528-.218s-.301-.05-.407.118c-.106.167-.466.185-.447.362.011.107-.014.27-.067.33-.128.145.061.251.095.38-.022-.425.653-1.251 1.329-.927-.062.106-.115.318-.134.575-.028.38.028.916.396 1.228l.146-.039z" stroke="#000" stroke-width=".02954238" fill="#337321"/>
    <path d="M7.828-4.187c-.004-.1.17-.231.405-.229.282.003.5.26.725.235s.115.1.067.134c-.047.033-.075.084-.058.145s-.012.102-.103.045c-.201-.126-.403.05-.668-.048-.23-.084-.363-.13-.368-.282z" stroke="#000" stroke-width=".02954238" fill="#cf142b"/>
    <path d="M6.678-1.551c-.112-.352-.536-.737-.743-.827l-.011-.19c.112-.044.38-.256.503-.374.837.402 1.976-.167 2.501-.759l.201.123-.1.134-.106-.056c-.129.156-.608.608-.754.702.196.05.462.084.536.08.469-.335.837-.637 1.016-.66l.15.202-.133.095-.106-.062c-.503.414-1.072 1.318-1.296 1.921-.312-.067-1.43-.022-1.658-.33z" stroke="#000" stroke-width=".02954238" fill="#96877d"/>
    <path d="M8.17-2.798a.824.824 0 0 1-.175-.06c-.089.084-.312.156-.597.168" stroke="#000" stroke-width=".02954238" fill="none"/>
    <path d="M6.722-1.674c-.075-.416.045-.877.257-1.016.464.307 1.257.307 1.726-.028" stroke="#000" stroke-width=".02954238" fill="none"/>
    <path d="M6.722-1.892c.358-.01 1.134.05 1.324.078.19.028.508.106.463.201M6.887-1.951l.103-.103-.103-.102-.102.102.102.103z" stroke="#000" stroke-width=".02954238" fill="none"/>
    <path d="M7.13-4.03c-.128-.18-.482-.236-.558.005-.034.106-.084.218-.168.268-.083.05-.064.203-.027.268.089.162.01.318.184.425 0-.129.19-.263.352-.296.162-.034.407-.179.44-.34.034-.163.09-.297-.223-.33z" stroke="#000" stroke-width=".02954238" fill="#337321"/>
    <path d="M6.325-2.422h.045v.305c.01.003.02.008.027.014l.263-.152.023.04-.264.152a.08.08 0 0 1 0 .03l.264.153-.023.038-.264-.152a.078.078 0 0 1-.026.016v.304h-.045v-.305a.078.078 0 0 1-.027-.014l-.263.151-.023-.038.264-.154a.08.08 0 0 1 0-.03l-.264-.152.023-.039.265.153a.078.078 0 0 1 .025-.016v-.304z" stroke="#000" stroke-width=".02954238" fill="#96877d"/>
    <path d="M6.724-1.675a.528.528 0 0 1-.905-.373.53.53 0 0 1 .95-.32 1.144 1.144 0 0 0-.061.283.362.362 0 1 0-.36.398.37.37 0 0 0 .353-.27c0 .066.002.226.023.282z" stroke="#000" stroke-width=".02954238" fill="#96877d"/>
    <path d="M6.125-1.171c-.033-.04-.095-.146-.09-.224a.29.29 0 0 1 .19.073c-.005-.056-.027-.179-.016-.235.061.023.19.095.234.179a.81.81 0 0 1-.01-.29c.066.039.178.145.2.217.006-.111.045-.296.078-.34.05.05.129.095.18.162.01-.09.055-.196.122-.224.05.056.128.185.145.33.05-.017.117-.1.145-.145a.313.313 0 0 1 .04.217c.06-.055.133-.134.15-.2a.435.435 0 0 1 .151.206c-.011-.073-.006-.201-.028-.274.084.045.15.123.168.207.022-.078.072-.218.117-.251.044.089.09.195.084.284.027-.055.072-.156.117-.178.039.061.033.195.022.268a.54.54 0 0 1 .157-.145c.005.033.01.1 0 .15.05-.028.134-.178.161-.257.079.04.157.174.162.24a.61.61 0 0 0 .201-.178c0 .039.017.145-.005.229.033-.034.067-.1.084-.129.022.056.005.19-.017.263a.292.292 0 0 1 .167-.073c.006.095-.061.263-.123.386-.536-.151-1.658-.207-2.786-.268z" stroke="#000" stroke-width=".02954238" fill="#337321"/>
    <path d="M7.994-4.13c-.002-.04.09-.134.254-.133.197.001.38.146.538.136s.08.04.047.054c-.033.014-.053.035-.041.06s-.009.041-.072.018c-.141-.051-.282.02-.468-.02-.16-.034-.254-.053-.258-.115z" fill="#f7e017"/>
  </g>
  <g stroke="#000" stroke-width=".186">
    <g fill="#f7e017">
      <path d="M6.298-.836c-.167.2-.335.167-.368.039-.034-.129.09-.19.044-.302-.044-.112.073-.162.129-.112.056.05.234-.111.313.056.078.168.14.285.094.352-.044.067-.178.034-.212-.033zM7.018-1.138c-.032-.073.142-.215.231-.114.09.1.23-.11.308.05.078.159.103.243.142.332.04.09-.212.137-.29.059.01.053-.217.094-.28-.056l-.111-.271zM8.18-1.046c-.042-.078.162-.19.268-.047.028-.059.23-.07.243.1.014.17.02.271.025.338s-.122.128-.215-.042c-.164.034-.24-.058-.26-.156s-.038-.145-.06-.193z" stroke-width=".02954238"/>
    </g>
    <g fill="#337321">
      <path d="M6.406-1.157c-.025-.056.143-.168.257-.084.115.084.273-.073.34.078.137.304.146.327.104.385-.042.059-.22.036-.265-.044-.009.055-.163.046-.243.002-.092-.05-.157-.237-.193-.337zM7.582-1.144c-.04-.086.223-.161.337-.01.059-.054.187-.057.26.108.073.165.084.257.03.299-.037.03-.172.053-.217-.022-.062.039-.251.005-.293-.1-.042-.107-.078-.2-.117-.275zM8.693-.979c-.005-.078.137-.114.19 0s.223.012.238.201c.002.036-.02.176-.073.243s-.313 0-.33-.142a3.47 3.47 0 0 1-.025-.302z" stroke-width=".02954238"/>
    </g>
    <g fill="none">
      <path d="M6.298-.836c-.061-.084-.145-.218-.251-.073M6.843-.823a.639.639 0 0 1-.1-.187M7.408-.811a.46.46 0 0 1-.128-.143M7.36-1.104c.097.01.164.103.195.145.03.042.095.117.145.125M7.993-.77c-.034-.053-.067-.1-.075-.14M7.92-1.155a.735.735 0 0 1 .078.131M8.501-.697a.473.473 0 0 0-.173-.193M8.479-1.004c.005.165.226.176.234.293M8.882-.979c.023.042.031.084.034.154" stroke-width=".02954238"/>
    </g>
  </g>
</svg>
