<?xml version="1.0" standalone="no"?>
<!DOCTYPE svg PUBLIC "-//W3C//DTD SVG 1.1//EN" "http://www.w3.org/Graphics/SVG/1.1/DTD/svg11.dtd">
<svg xmlns="http://www.w3.org/2000/svg">
<metadata>Generated by Fontastic.me</metadata>
<defs>
<font id="linea-arrows-10" horiz-adv-x="512">
<font-face font-family="linea-arrows-10" units-per-em="512" ascent="480" descent="-32"/>
<missing-glyph horiz-adv-x="512" />

<glyph unicode="&#57344;" d="M256 512c-141 0-256-115-256-256 0-54 16-105 48-149l35-35-67 0 0-16 88 0 8 8 0 88-16 0 0-71-36 36c-29 41-44 89-44 139 0 132 108 240 240 240 132 0 240-108 240-240 0-132-108-240-240-240l0-16c141 0 256 115 256 256 0 141-115 256-256 256z"/>
<glyph unicode="&#57345;" d="M256 512c-141 0-256-115-256-256 0-54 16-105 48-149l35-35-67 0 0-16 88 0 8 8 0 88-16 0 0-71-36 36c-29 41-44 89-44 139 0 132 108 240 240 240 5 0 10 0 15 0l2 15c-6 1-11 1-17 1z m169-63l-11-12c8-7 15-15 22-23l12 11c-7 8-15 16-23 24z m74-275l-16 5c-3-10-7-20-12-29l15-7c5 10 9 20 13 31z m-115-140c10 6 19 12 28 19l-10 13c-8-7-17-13-26-18z m-8 430c9-5 18-11 26-17l10 12c-9 7-19 13-28 19z m119-192c1-5 1-11 1-16 0-5 0-10 0-15l15-1c1 5 1 10 1 16 0 6 0 11-1 17z m-156-258c10 3 20 8 30 12l-7 15c-9-5-19-9-29-12z m-49-12c11 2 22 4 32 7l-4 15c-10-3-20-5-30-6z m-3 492c10-1 21-3 31-6l4 15c-11 3-22 5-33 7z m216-171l-15-5c3-10 5-20 6-30l16 2c-2 11-4 22-7 33z m-89-247l11-12c8 7 16 15 24 23l-12 11c-7-8-15-15-23-22z m96 147l-16 2c-1-10-3-21-6-31l15-4c3 11 5 22 7 33z m-64 179c7-8 13-17 18-26l14 8c-6 10-12 19-19 28z m25-40c5-9 9-19 12-29l15 6c-3 10-8 20-12 30z m-138 121c10-3 20-7 29-12l7 15c-10 5-20 9-31 13z m145-355l-14 8c-5-9-11-18-17-26l12-10c7 9 13 19 19 28z m-222-112l0-16c6 0 11 0 17 1l-2 15c-5 0-10 0-15 0z"/>
<glyph unicode="&#57346;" d="M256 512c-75 0-136-61-136-136l0-240c0-75 61-136 136-136 75 0 136 61 136 136l0 240c0 75-61 136-136 136z m120-376c0-66-54-120-120-120-66 0-120 54-120 120l0 240c0 66 54 120 120 120 66 0 120-54 120-120z m-120 104c-57 0-104-47-104-104 0-57 47-104 104-104 57 0 104 47 104 104 0 57-47 104-104 104z m0-192c-49 0-88 39-88 88 0 49 39 88 88 88 49 0 88-39 88-88 0-49-39-88-88-88z"/>
<glyph unicode="&#57347;" d="M376 392l-240 0c-75 0-136-61-136-136 0-75 61-136 136-136l240 0c75 0 136 61 136 136 0 75-61 136-136 136z m0-256l-240 0c-66 0-120 54-120 120 0 66 54 120 120 120l240 0c66 0 120-54 120-120 0-66-54-120-120-120z m-240 224c-57 0-104-47-104-104 0-57 47-104 104-104 57 0 104 47 104 104 0 57-47 104-104 104z m0-192c-49 0-88 39-88 88 0 49 39 88 88 88 49 0 88-39 88-88 0-49-39-88-88-88z"/>
<glyph unicode="&#57348;" d="M376 392l-240 0c-75 0-136-61-136-136 0-75 61-136 136-136l240 0c75 0 136 61 136 136 0 75-61 136-136 136z m0-256l-240 0c-66 0-120 54-120 120 0 66 54 120 120 120l240 0c66 0 120-54 120-120 0-66-54-120-120-120z m0 224c-57 0-104-47-104-104 0-57 47-104 104-104 57 0 104 47 104 104 0 57-47 104-104 104z m0-192c-49 0-88 39-88 88 0 49 39 88 88 88 49 0 88-39 88-88 0-49-39-88-88-88z"/>
<glyph unicode="&#57349;" d="M392 136l0 240c0 75-61 136-136 136-75 0-136-61-136-136l0-240c0-75 61-136 136-136 75 0 136 61 136 136z m-136-120c-66 0-120 54-120 120l0 240c0 66 54 120 120 120 66 0 120-54 120-120l0-240c0-66-54-120-120-120z m0 464c-57 0-104-47-104-104 0-57 47-104 104-104 57 0 104 47 104 104 0 57-47 104-104 104z m0-192c-49 0-88 39-88 88 0 49 39 88 88 88 49 0 88-39 88-88 0-49-39-88-88-88z"/>
<glyph unicode="&#57350;" d="M110 254l-12-13 96-97 12 0 192 193-12 12-186-186z"/>
<glyph unicode="&#57351;" d="M206 144l192 193-12 12-186-186-90 91-12-13 96-97z m50-144c0 0 0 0 0 0 68 0 133 27 181 75 48 48 75 113 75 181 0 68-27 133-75 181-48 48-113 75-181 75 0 0 0 0 0 0-68 0-133-27-181-75-48-48-75-113-75-181 0-68 27-133 75-181 48-48 113-75 181-75z m-170 426c46 45 106 70 170 70 0 0 0 0 0 0 64 0 124-25 170-70 45-46 70-106 70-170 0-64-25-124-70-170-46-45-106-70-170-70l0 0c0 0 0 0 0 0-64 0-124 25-170 70-45 46-70 106-70 170 0 64 25 124 70 170z"/>
<glyph unicode="&#57352;" d="M262 176l136 137-12 12-130-130-130 131-12-13 136-137z m-6-176c0 0 0 0 0 0 68 0 133 27 181 75 48 48 75 113 75 181 0 68-27 133-75 181-48 48-113 75-181 75 0 0 0 0 0 0-68 0-133-27-181-75-48-48-75-113-75-181 0-68 27-133 75-181 48-48 113-75 181-75z m-170 426c46 45 106 70 170 70 0 0 0 0 0 0 64 0 124-25 170-70 45-46 70-106 70-170 0-64-25-124-70-170-46-45-106-70-170-70l0 0c0 0 0 0 0 0-64 0-124 25-170 70-45 46-70 106-70 170 0 64 25 124 70 170z"/>
<glyph unicode="&#57353;" d="M256 0c0 0 0 0 0 0 68 0 133 27 181 75 48 48 75 113 75 181 0 68-27 133-75 181-48 48-113 75-181 75 0 0 0 0 0 0-68 0-133-27-181-75-48-48-75-113-75-181 0-68 27-133 75-181 48-48 113-75 181-75z m-170 426c46 45 106 70 170 70 0 0 0 0 0 0 64 0 124-25 170-70 45-46 70-106 70-170 0-64-25-124-70-170-46-45-106-70-170-70l0 0c0 0 0 0 0 0-64 0-124 25-170 70-45 46-70 106-70 170 0 64 25 124 70 170z m290-250l0 16-184 0 0 184-16 0 0-192 8-8z"/>
<glyph unicode="&#57354;" d="M256 0c0 0 0 0 0 0 68 0 133 27 181 75 48 48 75 113 75 181 0 68-27 133-75 181-48 48-113 75-181 75 0 0 0 0 0 0-68 0-133-27-181-75-48-48-75-113-75-181 0-68 27-133 75-181 48-48 113-75 181-75z m-170 426c46 45 106 70 170 70 0 0 0 0 0 0 64 0 124-25 170-70 45-46 70-106 70-170 0-64-25-124-70-170-46-45-106-70-170-70l0 0c0 0 0 0 0 0-64 0-124 25-170 70-45 46-70 106-70 170 0 64 25 124 70 170z m250-242l0 192-16 0 0-184-184 0 0-16 192 0z"/>
<glyph unicode="&#57355;" d="M223 114l137 136 0 12-137 136-12-12 130-130-130-130z m33-114c0 0 0 0 0 0 68 0 133 27 181 75 48 48 75 113 75 181 0 68-27 133-75 181-48 48-113 75-181 75 0 0 0 0 0 0-68 0-133-27-181-75-48-48-75-113-75-181 0-68 27-133 75-181 48-48 113-75 181-75z m-170 426c46 45 106 70 170 70 0 0 0 0 0 0 64 0 124-25 170-70 45-46 70-106 70-170 0-64-25-124-70-170-46-45-106-70-170-70l0 0c0 0 0 0 0 0-64 0-124 25-170 70-45 46-70 106-70 170 0 64 25 124 70 170z"/>
<glyph unicode="&#57356;" d="M112 272l288 0 0-16-288 0z m144-272c0 0 0 0 0 0 68 0 133 27 181 75 48 48 75 113 75 181 0 68-27 133-75 181-48 48-113 75-181 75 0 0 0 0 0 0-68 0-133-27-181-75-48-48-75-113-75-181 0-68 27-133 75-181 48-48 113-75 181-75z m-170 426c46 45 106 70 170 70 0 0 0 0 0 0 64 0 124-25 170-70 45-46 70-106 70-170 0-64-25-124-70-170-46-45-106-70-170-70l0 0c0 0 0 0 0 0-64 0-124 25-170 70-45 46-70 106-70 170 0 64 25 124 70 170z"/>
<glyph unicode="&#57357;" d="M248 112l16 0 0 136 136 0 0 16-136 0 0 136-16 0 0-136-136 0 0-16 136 0z m8-112c0 0 0 0 0 0 68 0 133 27 181 75 48 48 75 113 75 181 0 68-27 133-75 181-48 48-113 75-181 75 0 0 0 0 0 0-68 0-133-27-181-75-48-48-75-113-75-181 0-68 27-133 75-181 48-48 113-75 181-75z m-170 426c46 45 106 70 170 70 0 0 0 0 0 0 64 0 124-25 170-70 45-46 70-106 70-170 0-64-25-124-70-170-46-45-106-70-170-70l0 0c0 0 0 0 0 0-64 0-124 25-170 70-45 46-70 106-70 170 0 64 25 124 70 170z"/>
<glyph unicode="&#57358;" d="M147 172l11-11 98 99 99-98 11 11-99 98 98 99-11 11-98-99-99 98-11-11 99-98z m109-172c0 0 0 0 0 0 68 0 133 27 181 75 48 48 75 113 75 181 0 68-27 133-75 181-48 48-113 75-181 75 0 0 0 0 0 0-68 0-133-27-181-75-48-48-75-113-75-181 0-68 27-133 75-181 48-48 113-75 181-75z m-170 426c46 45 106 70 170 70 0 0 0 0 0 0 64 0 124-25 170-70 45-46 70-106 70-170 0-64-25-124-70-170-46-45-106-70-170-70l0 0c0 0 0 0 0 0-64 0-124 25-170 70-45 46-70 106-70 170 0 64 25 124 70 170z"/>
<glyph unicode="&#57359;" d="M302 126l-131 130 131 130-13 12-137-136 0-12 137-136z m-46-126c0 0 0 0 0 0 68 0 133 27 181 75 48 48 75 113 75 181 0 68-27 133-75 181-48 48-113 75-181 75 0 0 0 0 0 0-68 0-133-27-181-75-48-48-75-113-75-181 0-68 27-133 75-181 48-48 113-75 181-75z m-170 426c46 45 106 70 170 70 0 0 0 0 0 0 64 0 124-25 170-70 45-46 70-106 70-170 0-64-25-124-70-170-46-45-106-70-170-70l0 0c0 0 0 0 0 0-64 0-124 25-170 70-45 46-70 106-70 170 0 64 25 124 70 170z"/>
<glyph unicode="&#57360;" d="M256 317l130-131 12 13-136 137-12 0-136-137 12-12z m0-317c0 0 0 0 0 0 68 0 133 27 181 75 48 48 75 113 75 181 0 68-27 133-75 181-48 48-113 75-181 75 0 0 0 0 0 0-68 0-133-27-181-75-48-48-75-113-75-181 0-68 27-133 75-181 48-48 113-75 181-75z m-170 426c46 45 106 70 170 70 0 0 0 0 0 0 64 0 124-25 170-70 45-46 70-106 70-170 0-64-25-124-70-170-46-45-106-70-170-70l0 0c0 0 0 0 0 0-64 0-124 25-170 70-45 46-70 106-70 170 0 64 25 124 70 170z"/>
<glyph unicode="&#57361;" d="M256 0c0 0 0 0 0 0 68 0 133 27 181 75 48 48 75 113 75 181 0 68-27 133-75 181-48 48-113 75-181 75 0 0 0 0 0 0-68 0-133-27-181-75-48-48-75-113-75-181 0-68 27-133 75-181 48-48 113-75 181-75z m-170 426c46 45 106 70 170 70 0 0 0 0 0 0 64 0 124-25 170-70 45-46 70-106 70-170 0-64-25-124-70-170-46-45-106-70-170-70l0 0c0 0 0 0 0 0-64 0-124 25-170 70-45 46-70 106-70 170 0 64 25 124 70 170z m106-106l184 0 0 16-200 0 0-200 16 0z"/>
<glyph unicode="&#57362;" d="M256 0c0 0 0 0 0 0 68 0 133 27 181 75 48 48 75 113 75 181 0 68-27 133-75 181-48 48-113 75-181 75 0 0 0 0 0 0-68 0-133-27-181-75-48-48-75-113-75-181 0-68 27-133 75-181 48-48 113-75 181-75z m-170 426c46 45 106 70 170 70 0 0 0 0 0 0 64 0 124-25 170-70 45-46 70-106 70-170 0-64-25-124-70-170-46-45-106-70-170-70l0 0c0 0 0 0 0 0-64 0-124 25-170 70-45 46-70 106-70 170 0 64 25 124 70 170z m234-290l16 0 0 192-8 8-192 0 0-16 184 0z"/>
<glyph unicode="&#57363;" d="M256 512c-141 0-256-115-256-256 0-141 115-256 256-256l0 16c-132 0-240 108-240 240 0 132 108 240 240 240 132 0 240-108 240-240 0-50-15-98-44-139l-36-36 0 71-16 0 0-88 8-8 88 0 0 16-67 0 35 34 0 1c32 44 48 95 48 149 0 141-115 256-256 256z"/>
<glyph unicode="&#57364;" d="M65 110c-6 8-12 17-17 26l-14-8c6-9 12-19 19-28z m-31 274l14-8c5 9 11 18 18 26l-13 10c-7-9-13-18-19-28z m-34-128c0-6 0-11 1-16l15 1c0 5 0 10 0 15 0 5 0 11 1 16l-16 1c-1-6-1-11-1-17z m2-33c2-11 4-22 7-33l15 4c-3 10-5 21-6 31z m0 67l16-2c1 10 3 20 6 30l-15 5c-3-11-5-22-7-33z m12 49l15-6c3 10 7 20 12 29l-15 7c-4-10-9-20-12-30z m27-189c-5 9-9 19-12 29l-16-5c4-11 8-21 13-31z m138 333l-5 16c-11-4-21-8-31-13l7-15c9 5 19 9 29 12z m-51-449l8 14c-9 5-18 11-26 18l-10-13c9-7 18-13 28-19z m94-32l2 16c-10 1-20 3-30 6l-5-15c11-3 22-5 33-7z m-49 12l6 15c-10 3-20 7-29 12l-7-15c10-4 20-9 30-12z m-37 450l-8 14c-9-6-19-12-28-19l10-12c8 6 17 12 26 17z m89 30l-2 16c-11-2-22-4-33-7l4-15c10 3 21 5 31 6z m-138-45c-8-8-16-16-23-24l12-11c7 8 14 16 22 23z m0-385l11 12c-8 7-16 14-23 22l-12-11c8-8 16-16 24-23z m169-48c-5 0-10 0-15 0l-2-15c6-1 11-1 17-1z m0 496c-6 0-11 0-17-1l2-15c5 0 10 0 15 0 132 0 240-108 240-240 0-50-15-98-44-139l-36-36 0 71-16 0 0-88 8-8 88 0 0 16-67 0 35 34 0 1c32 44 48 95 48 149 0 141-115 256-256 256z"/>
<glyph unicode="&#57365;" d="M382 306l-13 12-57-56 0-12 57-56 12 12-42 42 173 0 0 16-173 0z m-252-100l13-12 57 56 0 12-57 56-12-12 42-42-173 0 0-16 173 0z m120-6l-56-57 12-12 42 42 0-173 16 0 0 173 42-43 12 13-56 57z m-2 312l0-173-42 43-12-13 56-57 12 0 56 57-12 12-42-42 0 173z"/>
<glyph unicode="&#57366;" d="M256 512c-68 0-133-27-181-75-48-48-75-113-75-181 0-68 27-133 75-181 48-48 113-75 181-75 68 0 133 27 181 75 48 48 75 113 75 181 0 68-27 133-75 181-48 48-113 75-181 75z m-170-426c-45 46-70 106-70 170 0 61 23 119 65 164l339-339c-45-42-103-65-164-65-64 0-124 25-170 70z m345 6l-339 339c45 42 103 65 164 65 64 0 124-25 170-70 45-46 70-106 70-170 0-61-23-119-65-164z"/>
<glyph unicode="&#57367;" d="M416 512l0-16 69 0-469-469 0 69-16 0 0-88 8-8 88 0 0 16-69 0 469 469 0-69 16 0 0 88-8 8z"/>
<glyph unicode="&#57368;" d="M496 27l-469 469 69 0 0 16-88 0-8-8 0-88 16 0 0 69 469-469-69 0 0-16 88 0 8 8 0 88-16 0z"/>
<glyph unicode="&#57369;" d="M386 326l-130-131-130 131-12-13 136-137 12 0 136 137z"/>
<glyph unicode="&#57370;" d="M255 139l-130 131-11-13 136-137 11 0 136 137-11 12z m0 120l-130 131-11-13 136-137 11 0 136 137-11 12z"/>
<glyph unicode="&#57371;" d="M176 376l0-192 8-8 192 0 0 16-184 0 0 184z"/>
<glyph unicode="&#57372;" d="M136 192l0-16 192 0 8 8 0 192-16 0 0-184z"/>
<glyph unicode="&#57373;" d="M256 512c-71 0-128-57-128-128 0-68 53-123 120-128l0-229-58 59-12-13 72-73 12 0 72 73-12 12-58-58 0 229c67 5 120 60 120 128 0 71-57 128-128 128z m0-240c-62 0-112 50-112 112 0 62 50 112 112 112 62 0 112-50 112-112 0-62-50-112-112-112z"/>
<glyph unicode="&#57374;" d="M248 72l16 0 0-32-16 0z m0 48l16 0 0-32-16 0z m0 96l16 0 0-32-16 0z m0-48l16 0 0-32-16 0z m136 216c0 71-57 128-128 128-71 0-128-57-128-128 0-68 53-123 120-128l0-24 16 0 0 24c67 5 120 60 120 128z m-128-112c-62 0-112 50-112 112 0 62 50 112 112 112 62 0 112-50 112-112 0-62-50-112-112-112z m-66-186l-12-13 72-73 12 0 72 73-12 12-61-61-10 0z"/>
<glyph unicode="&#57375;" d="M184 512l16 0 0-512-16 0z m64 0l16 0 0-512-16 0z m64 0l16 0 0-512-16 0z"/>
<glyph unicode="&#57376;" d="M384 384c-68 0-123-53-128-120l-229 0 59 58-13 12-73-72 0-12 73-72 12 12-58 58 229 0c5-67 60-120 128-120 71 0 128 57 128 128 0 71-57 128-128 128z m0-240c-62 0-112 50-112 112 0 62 50 112 112 112 62 0 112-50 112-112 0-62-50-112-112-112z"/>
<glyph unicode="&#57377;" d="M40 264l32 0 0-16-32 0z m144 0l32 0 0-16-32 0z m-48 0l32 0 0-16-32 0z m-48 0l32 0 0-16-32 0z m296 120c-68 0-123-53-128-120l-24 0 0-16 24 0c5-67 60-120 128-120 71 0 128 57 128 128 0 71-57 128-128 128z m0-240c-62 0-112 50-112 112 0 62 50 112 112 112 62 0 112-50 112-112 0-62-50-112-112-112z m-311 190l-73-72 0-12 73-72 12 12-61 61 0 10 61 61z"/>
<glyph unicode="&#57378;" d="M426 322l59-58-229 0c-5 67-60 120-128 120-71 0-128-57-128-128 0-71 57-128 128-128 68 0 123 53 128 120l229 0-59-58 13-12 73 72 0 12-73 72z m-298-178c-62 0-112 50-112 112 0 62 50 112 112 112 62 0 112-50 112-112 0-62-50-112-112-112z"/>
<glyph unicode="&#57379;" d="M296 264l32 0 0-16-32 0z m48 0l32 0 0-16-32 0z m96 0l32 0 0-16-32 0z m-48 0l32 0 0-16-32 0z m-136-16l24 0 0 16-24 0c-5 67-60 120-128 120-71 0-128-57-128-128 0-71 57-128 128-128 68 0 123 53 128 120z m-128-104c-62 0-112 50-112 112 0 62 50 112 112 112 62 0 112-50 112-112 0-62-50-112-112-112z m298 178l62-61 0-10-62-61 13-12 73 72 0 12-73 72z"/>
<glyph unicode="&#57380;" d="M264 256l0 229 58-59 12 13-72 73-12 0-72-73 12-12 58 58 0-229c-67-5-120-60-120-128 0-71 57-128 128-128 71 0 128 57 128 128 0 68-53 123-120 128z m-8-240c-62 0-112 50-112 112 0 62 50 112 112 112 62 0 112-50 112-112 0-62-50-112-112-112z"/>
<glyph unicode="&#57381;" d="M248 376l16 0 0-32-16 0z m0 96l16 0 0-32-16 0z m0-48l16 0 0-32-16 0z m0-96l16 0 0-32-16 0z m-120-200c0-71 57-128 128-128 71 0 128 57 128 128 0 68-53 123-120 128l0 24-16 0 0-24c-67-5-120-60-120-128z m128 112c62 0 112-50 112-112 0-62-50-112-112-112-62 0-112 50-112 112 0 62 50 112 112 112z m66 186l12 13-72 73-12 0-72-73 12-12 61 61 10 0z"/>
<glyph unicode="&#57382;" d="M0 200l512 0 0-16-512 0z m0 64l512 0 0-16-512 0z m0 64l512 0 0-16-512 0z"/>
<glyph unicode="&#57383;" d="M256 512c-68 0-133-27-181-75-48-48-75-113-75-181 0-68 27-133 75-181 48-48 113-75 181-75 68 0 133 27 181 75 48 48 75 113 75 181 0 68-27 133-75 181-48 48-113 75-181 75z m170-426c-46-45-106-70-170-70-64 0-124 25-170 70-45 46-70 106-70 170 0 64 25 124 70 170 46 45 106 70 170 70 64 0 124-25 170-70 45-46 70-106 70-170 0-64-25-124-70-170z m-178 290l16 0 0-176-16 0z m0-208l16 0 0-32-16 0z"/>
<glyph unicode="&#57384;" d="M16 485l154-155 12 12-155 154 69 0 0 16-88 0-8-8 0-88 16 0z m80-485l0 16-69 0 155 154-12 12-154-155 0 69-16 0 0-88 8-8z m400 27l-154 155-12-12 155-154-69 0 0-16 88 0 8 8 0 88-16 0z m-80 485l0-16 69 0-155-154 12-12 154 155 0-69 16 0 0 88-8 8z"/>
<glyph unicode="&#57385;" d="M416 512l0-16 69 0-181-181-194 195-12-12 400-400 12 12-195 194 181 181 0-69 16 0 0 88-8 8z m-320-512l0 16-69 0 181 181 196-196 11 11-401 402-12-12 195-194-181-181 0 69-16 0 0-88 8-8z"/>
<glyph unicode="&#57386;" d="M336 512l0-512 16 0 0 248 133 0-43-42 13-12 57 56 0 12-57 56-12-12 42-42-133 0 0 248z m-279-194l-57-56 0-12 57-56 12 12-42 42 133 0 0-248 16 0 0 512-16 0 0-248-133 0 42 42z"/>
<glyph unicode="&#57387;" d="M0 160l248 0 0-133-42 43-12-13 56-57 12 0 56 57-12 12-42-42 0 133 248 0 0 16-512 0z m264 325l42-43 12 13-56 57-12 0-56-57 12-12 42 42 0-133-248 0 0-16 512 0 0 16-248 0z"/>
<glyph unicode="&#57388;" d="M134 206l-43 42 330 0-43-42 13-12 57 56 0 12-57 56-12-12 42-42-330 0 43 42-13 12-57-56 0-12 57-56z m362 306l16 0 0-512-16 0z m-496 0l16 0 0-512-16 0z"/>
<glyph unicode="&#57389;" d="M206 134l-12-13 56-57 12 0 56 57-12 12-42-42 0 330 42-43 12 13-56 57-12 0-56-57 12-12 42 42 0-330z m-206 378l512 0 0-16-512 0z m0-496l512 0 0-16-512 0z"/>
<glyph unicode="&#57390;" d="M256 20l-106 106-12-13 112-113 11 0 112 113-11 12z m-5 492l-113-113 12-12 106 106 107-106 11 12-112 113z m53-256c0 27-22 48-48 48-27 0-48-21-48-48 0-26 21-48 48-48 26 0 48 22 48 48z m-80 0c0 18 14 32 32 32 17 0 32-14 32-32 0-17-15-32-32-32-18 0-32 15-32 32z m162 106l107-106-107-106 13-12 113 112 0 12-113 112z m-261 1l-12 11-113-112 0-11 113-112 12 11-106 107z"/>
<glyph unicode="&#57391;" d="M362 386l131-130-131-130 13-12 137 136 0 12-137 136z m-225 12l-137-136 0-11 137-136 12 11-130 131 130 130z m119-94c-26 0-48-22-48-48 0-26 22-48 48-48 26 0 48 22 48 48 0 26-22 48-48 48z m0-80c-18 0-32 14-32 32 0 18 14 32 32 32 18 0 32-14 32-32 0-18-14-32-32-32z"/>
<glyph unicode="&#57392;" d="M256 20l-131 130-11-13 136-137 11 0 136 137-11 12z m-5 492l-136-137 11-12 130 130 131-130 11 12-136 137z m53-256c0 27-22 48-48 48-27 0-48-21-48-48 0-26 21-48 48-48 26 0 48 22 48 48z m-80 0c0 18 14 32 32 32 17 0 32-14 32-32 0-17-15-32-32-32-18 0-32 15-32 32z"/>
<glyph unicode="&#57393;" d="M0 352l48 0 0-16-48 0z m128 0l384 0 0-16-384 0z m-128-96l48 0 0-16-48 0z m128 0l384 0 0-16-384 0z m-128-96l48 0 0-16-48 0z m128 0l384 0 0-16-384 0z"/>
<glyph unicode="&#57394;" d="M96 352l320 0 0-16-320 0z m0-96l320 0 0-16-320 0z m0-96l320 0 0-16-320 0z"/>
<glyph unicode="&#57395;" d="M57 318l-57-56 0-12 57-56 12 12-42 42 458 0-43-42 13-12 57 56 0 12-57 56-12-12 42-42-458 0 42 42z"/>
<glyph unicode="&#57396;" d="M256 512c-68 0-133-27-181-75-48-48-75-113-75-181 0-68 27-133 75-181 48-48 113-75 181-75 68 0 133 27 181 75 48 48 75 113 75 181 0 68-27 133-75 181-48 48-113 75-181 75z m170-426c-46-45-106-70-170-70-64 0-124 25-170 70-45 46-70 106-70 170 0 64 25 124 70 170 46 45 106 70 170 70 64 0 124-25 170-70 45-46 70-106 70-170 0-64-25-124-70-170z m-178 226l16 0 0-176-16 0z m0 64l16 0 0-32-16 0z"/>
<glyph unicode="&#57397;" d="M8 512l-8-8 0-496 8-8 496 0 8 8 0 496-8 8z m488-496l-480 0 0 480 480 0z m-263 156l7-4 224 0 0 16-220 0-93 140-7 4-96 0 0-16 92 0z m7 156l224 0 0-16-224 0z"/>
<glyph unicode="&#57398;" d="M8 512l-8-8 0-496 8-8 496 0 8 8 0 496-8 8z m488-496l-480 0 0 480 480 0z m-320 208c-26 0-48-22-48-48 0-26 22-48 48-48 26 0 48 22 48 48l0 32 64 0 0-32c0-26 22-48 48-48 26 0 48 22 48 48 0 26-22 48-48 48l-32 0 0 64 32 0c26 0 48 22 48 48 0 26-22 48-48 48-26 0-48-22-48-48l0-32-64 0 0 32c0 26-22 48-48 48-26 0-48-22-48-48 0-26 22-48 48-48l32 0 0-64z m32-48c0-18-14-32-32-32-18 0-32 14-32 32 0 18 14 32 32 32l32 0z m96 160c0 18 14 32 32 32 18 0 32-14 32-32 0-18-14-32-32-32l-32 0z m0-128l32 0c18 0 32-14 32-32 0-18-14-32-32-32-18 0-32 14-32 32z m-80 80l64 0 0-64-64 0z m-48 16c-18 0-32 14-32 32 0 18 14 32 32 32 18 0 32-14 32-32l0-32z"/>
<glyph unicode="&#57399;" d="M8 512l-8-8 0-496 8-8 496 0 8 8 0 496-8 8z m488-496l-480 0 0 480 480 0z m-48 136l0 208-300 0-86-104 86-104z m-292 192l276 0 0-176-276 0-74 88z m66-150l50 51 50-51 12 12-51 50 51 50-12 12-50-51-50 51-12-12 51-50-51-50z"/>
<glyph unicode="&#57400;" d="M8 512l-8-8 0-496 8-8 496 0 8 8 0 496-8 8z m488-496l-480 0 0 480 480 0z m-233 152l88 130-7 14-176 0-7-14 88-130z m66 128l-73-106-73 106z"/>
<glyph unicode="&#57401;" d="M8 512l-8-8 0-496 8-8 496 0 8 8 0 496-8 8z m488-496l-480 0 0 480 480 0z m-184 152l0 176-14 7-130-88 0-14 130-88z m-16 15l-106 73 106 73z"/>
<glyph unicode="&#57402;" d="M8 512l-8-8 0-496 8-8 496 0 8 8 0 496-8 8z m488-496l-480 0 0 480 480 0z m-346 134l-59 58 357 0 0 168-96 0 0-16 80 0 0-136-341 0 59 58-13 12-73-72 0-12 73-72z"/>
<glyph unicode="&#57403;" d="M8 512l-8-8 0-496 8-8 496 0 8 8 0 496-8 8z m488-496l-480 0 0 480 480 0z m-152 233l0 14-130 88-14-7 0-176 14-7z m-128 80l106-73-106-73z"/>
<glyph unicode="&#57404;" d="M8 512l-8-8 0-496 8-8 496 0 8 8 0 496-8 8z m488-496l-480 0 0 480 480 0z m-304 200l0-72 8-8 112 0 8 8 0 72 56 0 6 15-120 145-12 0-120-145 6-15z m64 140l103-124-47 0-8-8 0-72-96 0 0 72-8 8-47 0z"/>
<glyph unicode="&#57405;" d="M8 512l-8-8 0-496 8-8 496 0 8 8 0 496-8 8z m488-496l-480 0 0 480 480 0z m-190 190l13-12 57 56 0 12-57 56-12-12 42-42-253 0 0-16 253 0z m86 122l16 0 0-144-16 0z"/>
<glyph unicode="&#57406;" d="M8 512l-8-8 0-496 8-8 496 0 8 8 0 496-8 8z m488-496l-480 0 0 480 480 0z m-152 168l7 14-88 130-14 0-88-130 7-14z m-88 122l73-106-146 0z"/>
<glyph unicode="&#57407;" d="M289 398l-137-136 0-12 137-136 12 12-130 130 130 130z"/>
<glyph unicode="&#57408;" d="M269 387l-12 11-137-136 0-11 137-136 12 11-130 131z m108 11l-137-136 0-11 137-136 12 11-130 131 130 130z"/>
<glyph unicode="&#57409;" d="M112 272l288 0 0-16-288 0z"/>
<glyph unicode="&#57410;" d="M70 306l-13 12-57-56 0-12 57-56 12 12-42 42 189 0 0 16-189 0z m226-58l189 0-43-42 13-12 57 56 0 12-57 56-12-12 42-42-189 0z m-46 264l-56-57 12-12 42 42 0-189 16 0 0 189 42-43 12 13-56 57z m-2-296l0-189-42 43-12-13 56-57 12 0 56 57-12 12-42-42 0 189z"/>
<glyph unicode="&#57411;" d="M0 250l57-56 12 12-42 42 221 0 0-221-42 43-12-13 56-57 12 0 56 57-12 12-42-42 0 221 221 0-43-42 13-12 57 56 0 12-57 56-12-12 42-42-221 0 0 221 42-43 12 13-56 57-12 0-56-57 12-12 42 42 0-221-221 0 43 42-13 12-57-56z"/>
<glyph unicode="&#57412;" d="M262 96l56 57-12 12-42-42 0 349-16 0 0-349-42 43-12-13 56-57z m-262-48l512 0 0-16-512 0z"/>
<glyph unicode="&#57413;" d="M166 206l-43 42 349 0 0 16-349 0 43 42-13 12-57-56 0-12 57-56z m-134 306l16 0 0-512-16 0z"/>
<glyph unicode="&#57414;" d="M346 206l13-12 57 56 0 12-57 56-12-12 42-42-349 0 0-16 349 0z m118 306l16 0 0-512-16 0z"/>
<glyph unicode="&#57415;" d="M264 40l0 349 42-43 12 13-56 57-12 0-56-57 12-12 42 42 0-349z m-264 440l512 0 0-16-512 0z"/>
<glyph unicode="&#57416;" d="M248 400l0-136-136 0 0-16 136 0 0-136 16 0 0 136 136 0 0 16-136 0 0 136z"/>
<glyph unicode="&#57417;" d="M256 512c-68 0-133-27-181-75-48-48-75-113-75-181 0-68 27-133 75-181 48-48 113-75 181-75 68 0 133 27 181 75 48 48 75 113 75 181 0 68-27 133-75 181-48 48-113 75-181 75z m170-426c-46-45-106-70-170-70-64 0-124 25-170 70-45 46-70 106-70 170 0 64 25 124 70 170 46 45 106 70 170 70 64 0 124-25 170-70 45-46 70-106 70-170 0-64-25-124-70-170z m-194 82l16 0 0-32-16 0z m24 224c-48 0-72-16-72-48l16 0c0 15 6 32 56 32 34 0 56-19 56-48 0-22-31-43-44-49-1-1-36-19-36-71l0-8 16 0 0 8c0 42 26 56 28 57 2 1 52 26 52 63 0 38-30 64-72 64z"/>
<glyph unicode="&#57418;" d="M354 381l-98-99-99 98-11-11 99-98-98-99 11-11 98 99 99-98 11 11-99 98 98 99z"/>
<glyph unicode="&#57419;" d="M360 262l-137 136-12-12 130-130-131-130 13-12 137 136z"/>
<glyph unicode="&#57420;" d="M242 386l131-130-131-130 13-12 137 136 0 12-137 136z m30-124l-137 136-12-12 130-130-131-130 13-12 137 136z"/>
<glyph unicode="&#57421;" d="M264 496c62 0 120-24 164-68 81-81 91-211 22-303l-34-34 0 69-16 0 0-88 8-8 88 0 0 16-69 0 35 34 0 1c74 98 64 238-23 324-46 47-109 73-175 73z m-202-109l34 34 0-69 16 0 0 88-8 8-88 0 0-16 69 0-35-34 0-1c-74-98-64-238 23-324 46-47 109-73 175-73l0 16c-62 0-120 24-164 68-81 81-91 211-22 303z"/>
<glyph unicode="&#57422;" d="M50 115l35-35-69 0 0-16 88 0 8 8 0 88-16 0 0-69-34 34c-69 92-59 222 22 303 44 44 102 68 164 68l0 16c-66 0-129-26-175-73-87-86-97-226-23-324z m377 317l69 0 0 16-88 0-8-8 0-88 16 0 0 69 34-34c69-92 59-222-22-303-44-44-102-68-164-68l0-16c66 0 129 26 175 73 87 86 97 226 23 324z"/>
<glyph unicode="&#57423;" d="M248 512c-5 0-11 0-17-1l2-16c5 1 10 1 15 1z m-245-288l16 2c-2 11-3 22-3 32l-16 0c0-12 1-23 3-34z m-3 51l16-1c1 11 2 22 4 32l-16 3c-2-11-3-22-4-34z m8 51l15-4c3 11 6 21 11 31l-15 6c-5-11-8-22-11-33z m55-201l23-24-11-11-24 23z m151 385c-11-2-22-4-33-7l4-16c10 3 21 5 32 7z m-50-13c-11-3-21-8-31-13l7-15c10 5 20 10 30 13z m-140-339c5-10 10-21 17-30l13 9c-6 9-11 18-16 28z m2 217l14-8c5 10 11 19 17 28l-14 9c-6-9-12-19-17-29z m-19-168c2-11 6-23 10-33l15 6c-4 10-7 20-10 30z m119 254l-8 14c-10-6-19-13-28-20l10-12c8 6 17 13 26 18z m-53-22c-7-6-13-14-19-21l12-10c6 7 12 14 18 20 1 1 3 3 4 4l-11 12c-2-2-3-3-4-5z m191-423l0-16c5 0 11 0 17 1l-2 16c-5-1-10-1-15-1z m231 322l-15-6c4-10 7-20 10-30l15 3c-2 11-6 23-10 33z m9-152l-15 4c-3-11-6-21-11-31l15-6c5 11 8 22 11 33z m-11 100c2-11 3-22 3-32l16 0c0 12-1 23-3 34z m-1-80l16-3c2 11 3 22 4 34l-16 1c-1-11-2-22-4-32z m-98-169c10 6 19 13 28 20l-10 12c-8-6-17-13-26-18z m41 31c2 2 3 3 4 5 7 6 13 14 19 21l-12 10c-6-7-12-14-18-20-1-1-3-3-4-4z m51 69l-14 8c-5-10-11-19-17-28l14-9c6 9 12 19 17 29z m-159-112c-10-3-21-5-32-7l3-16c11 2 22 4 33 7z m45 18c-10-5-20-10-30-13l6-15c11 3 21 8 31 13z m116 311c-5 10-10 21-17 30l-13-9c6-9 11-18 16-28z m-39 33l-23 24 11 11 24-23z m-433-307l0-16 88 0 8 8 0 88-16 0 0-73-7-7z m384 360l0-88 16 0 0 73 7 7 73 0 0 16-88 0z"/>
<glyph unicode="&#57424;" d="M264 512l0-16c5 0 10 0 15-1l2 16c-6 1-11 1-17 1z m34-2l-3-16c11-2 22-4 32-7l4 16c-11 3-22 5-33 7z m207-303l-15 3c-3-10-6-20-10-30l15-6c4 10 8 21 10 33z m7 51l-16 0c0-10-1-21-3-32l16-2c2 11 3 22 3 34z m-75-168l-11 11 23 24 12-12z m-89 407l-6-15c10-3 20-8 30-13l7 15c-10 5-20 10-31 13z m140-339l-14 7c-5-10-10-19-16-28l13-9c7 10 12 20 17 30z m4 148c2-10 3-21 4-32l16 1c-1 12-2 23-4 34z m-37 89c6-9 12-18 17-28l14 8c-5 10-11 20-17 29z m23-42c4-10 8-20 11-31l15 4c-3 11-6 22-11 33z m-43 91l-11-12c1-1 3-3 4-4 6-6 12-13 18-20l12 10c-6 7-12 15-19 21-1 2-2 3-4 5z m-49 17c9-5 18-11 26-18l10 12c-9 7-18 14-28 20z m30-374l0 73-16 0 0-88 8-8 88 0 0 16-73 0z m-168-71c-5 0-10 0-15 1l-2-16c6-1 11-1 17-1z m-158 41c9-7 18-14 28-20l8 14c-9 5-18 11-26 18z m-90 180c1-12 2-23 4-34l16 3c-2 10-3 21-4 32z m8-51c3-11 6-22 11-33l15 6c-4 10-8 20-11 31z m14 116c3 10 6 20 10 30l-15 6c-4-10-8-21-10-33z m118-259l-7-15c10-5 20-10 31-13l6 15c-10 3-20 8-30 13z m-140 211l16 0c0 10 1 21 3 32l-16 2c-2-11-3-22-3-34z m24 100l14-7c5 10 10 19 16 28l-13 9c-7-10-12-20-17-30z m2-217c5-10 11-20 17-29l14 9c-6 9-12 18-17 28z m51-69l11 12c-1 1-3 3-4 4-6 6-12 13-18 20l-12-10c6-7 12-15 19-21 1-2 2-3 4-5z m-14 319l-12 12 24 23 11-11z m122-362l-4-16c11-3 22-5 33-7l3 16c-11 2-22 4-32 7z m-169 423l0-16 73 0 7-7 0-73 16 0 0 88-8 8z"/>
<glyph unicode="&#57425;" d="M14 2l162 163 0-69 16 0 0 88-8 8-88 0 0-16 69 0-163-162z m306 94l16 0 0 69 162-163 12 12-163 162 69 0 0 16-88 0-8-8z m0 320l0-88 8-8 88 0 0 16-69 0 163 162-12 12-162-163 0 69z m-224-96l88 0 8 8 0 88-16 0 0-69-162 163-12-12 163-162-69 0z"/>
<glyph unicode="&#57426;" d="M14 222l-12-12 208-208 12 12-99 98 101 101 0-69 16 0 0 88-8 8-88 0 0-16 69 0-101-101z m258 146l0-88 8-8 88 0 0 16-69 0 101 101 98-99 12 12-208 208-12-12 99-98-101-101 0 69z"/>
<glyph unicode="&#57427;" d="M368 272l0 16-69 0 211 210-12 12-210-211 0 69-16 0 0-88 8-8z m-354-270l210 211 0-69 16 0 0 88-8 8-88 0 0-16 69 0-211-210z"/>
<glyph unicode="&#57428;" d="M366 306l-13 12-57-56 0-12 57-56 12 12-42 42 189 0 0 16-189 0z m-220 0l43-42-189 0 0-16 189 0-43-42 13-12 57 56 0 12-57 56z"/>
<glyph unicode="&#57429;" d="M32 512l0-512 16 0 0 248 141 0-43-42 13-12 57 56 0 12-57 56-12-12 42-42-141 0 0 248z m321-194l-57-56 0-12 57-56 12 12-42 42 141 0 0-248 16 0 0 512-16 0 0-248-141 0 42 42z"/>
<glyph unicode="&#57430;" d="M0 464l248 0 0-141-42 43-12-13 56-57 12 0 56 57-12 12-42-42 0 141 248 0 0 16-512 0z m264-275l42-43 12 13-56 57-12 0-56-57 12-12 42 42 0-141-248 0 0-16 512 0 0 16-248 0z"/>
<glyph unicode="&#57431;" d="M264 323l0 189-16 0 0-189-42 43-12-13 56-57 12 0 56 57-12 12z m-14-107l-56-57 12-12 42 42 0-189 16 0 0 189 42-43 12 13-56 57z"/>
<glyph unicode="&#57432;" d="M112 149l144-153 144 153 0 363-288 0z m16 347l256 0 0-341-128-135-128 135z"/>
<glyph unicode="&#57433;" d="M149 400l-153-144 153-144 363 0 0 288z m347-272l-341 0-135 128 135 128 341 0z"/>
<glyph unicode="&#57434;" d="M0 400l0-288 363 0 153 144-153 144z m357-272l-341 0 0 256 341 0 135-128z"/>
<glyph unicode="&#57435;" d="M256 516l-144-153 0-363 288 0 0 363z m128-500l-256 0 0 341 128 135 128-135z"/>
<glyph unicode="&#57436;" d="M368 496l0 16-160 0 0-485-58 59-12-13 72-73 12 0 72 73-12 12-58-58 0 469z"/>
<glyph unicode="&#57437;" d="M144 496l144 0 0-469-58 59-12-13 72-73 12 0 72 73-12 12-58-58 0 485-160 0z"/>
<glyph unicode="&#57438;" d="M86 362l-13 12-73-72 0-12 73-72 12 12-58 58 469 0 0-144 16 0 0 160-485 0z"/>
<glyph unicode="&#57439;" d="M496 224l-469 0 59 58-13 12-73-72 0-12 73-72 12 12-58 58 485 0 0 160-16 0z"/>
<glyph unicode="&#57440;" d="M16 288l469 0-59-58 13-12 73 72 0 12-73 72-12-12 58-58-485 0 0-160 16 0z"/>
<glyph unicode="&#57441;" d="M426 150l13-12 73 72 0 12-73 72-12-12 58-58-469 0 0 144-16 0 0-160 485 0z"/>
<glyph unicode="&#57442;" d="M144 16l0-16 160 0 0 485 58-59 12 13-72 73-12 0-72-73 12-12 58 58 0-469z"/>
<glyph unicode="&#57443;" d="M368 0l0 16-144 0 0 469 58-59 12 13-72 73-12 0-72-73 12-12 58 58 0-485z"/>
<glyph unicode="&#57444;" d="M248 512l0-485-58 59-12-13 72-73 12 0 72 73-12 12-58-58 0 485z"/>
<glyph unicode="&#57445;" d="M248 224l16 0 0-32-16 0z m0 144l16 0 0-32-16 0z m0-96l16 0 0-32-16 0z m0 48l16 0 0-32-16 0z m0 96l16 0 0-32-16 0z m0 96l16 0 0-32-16 0z m0-48l16 0 0-32-16 0z m0-288l16 0 0-32-16 0z m0-48l16 0 0-32-16 0z m0-48l16 0 0-8-16 0z m2-80l12 0 72 73-12 12-66-66-66 67-12-13z"/>
<glyph unicode="&#57446;" d="M86 322l-13 12-73-72 0-12 73-72 12 12-58 58 485 0 0 16-485 0z"/>
<glyph unicode="&#57447;" d="M336 264l32 0 0-16-32 0z m-48 0l32 0 0-16-32 0z m-48 0l32 0 0-16-32 0z m144 0l32 0 0-16-32 0z m48 0l32 0 0-16-32 0z m48 0l32 0 0-16-32 0z m-384 0l32 0 0-16-32 0z m48 0l32 0 0-16-32 0z m48 0l32 0 0-16-32 0z m-144 0l32 0 0-16-32 0z m25 70l-73-72 0-12 73-72 12 12-58 58 5 0 0 16-5 0 58 58z"/>
<glyph unicode="&#57448;" d="M426 190l13-12 73 72 0 12-73 72-12-12 58-58-485 0 0-16 485 0z"/>
<glyph unicode="&#57449;" d="M192 264l32 0 0-16-32 0z m-144 0l32 0 0-16-32 0z m48 0l32 0 0-16-32 0z m48 0l32 0 0-16-32 0z m-144 0l32 0 0-16-32 0z m432 0l32 0 0-16-32 0z m-48 0l32 0 0-16-32 0z m-48 0l32 0 0-16-32 0z m-48 0l32 0 0-16-32 0z m-48 0l32 0 0-16-32 0z m199-86l73 72 0 12-73 72-12-12 58-58-5 0 0-16 5 0-58-58z"/>
<glyph unicode="&#57450;" d="M264 0l0 485 58-59 12 13-72 73-12 0-72-73 12-12 58 58 0-485z"/>
<glyph unicode="&#57451;" d="M248 80l16 0 0-32-16 0z m0 288l16 0 0-32-16 0z m0-240l16 0 0-32-16 0z m0 96l16 0 0-32-16 0z m0 192l16 0 0-32-16 0z m0-240l16 0 0-32-16 0z m0 96l16 0 0-32-16 0z m0 192l16 0 0-32-16 0z m0-432l16 0 0-32-16 0z m0 288l16 0 0-32-16 0z m-58 106l58 59 0-5 16 0 0 5 58-59 12 13-72 73-12 0-72-73z"/>
<glyph unicode="&#57452;" d="M200 163l-90 91-12-13 96-97 12 0 192 193-12 12z m-200-163l512 0 0 512-512 0z m16 496l480 0 0-480-480 0z"/>
<glyph unicode="&#57453;" d="M256 195l-130 131-12-13 136-137 12 0 136 137-12 12z m-256-195l512 0 0 512-512 0z m16 496l480 0 0-480-480 0z"/>
<glyph unicode="&#57454;" d="M192 376l-16 0 0-192 8-8 192 0 0 16-184 0z m-192-376l512 0 0 512-512 0z m16 496l480 0 0-480-480 0z"/>
<glyph unicode="&#57455;" d="M320 192l-184 0 0-16 192 0 8 8 0 192-16 0z m-320-192l512 0 0 512-512 0z m16 496l480 0 0-480-480 0z"/>
<glyph unicode="&#57456;" d="M289 398l-137-136 0-12 137-136 12 12-130 130 130 130z m-289-398l512 0 0 512-512 0z m16 496l480 0 0-480-480 0z"/>
<glyph unicode="&#57457;" d="M112 272l288 0 0-16-288 0z m-112-272l512 0 0 512-512 0z m16 496l480 0 0-480-480 0z"/>
<glyph unicode="&#57458;" d="M248 112l16 0 0 136 136 0 0 16-136 0 0 136-16 0 0-136-136 0 0-16 136 0z m-248 400l0-512 512 0 0 512z m496-496l-480 0 0 480 480 0z"/>
<glyph unicode="&#57459;" d="M365 370l-11 11-98-99-99 98-11-11 99-98-98-99 11-11 98 99 99-98 11 11-99 98z m-365-370l512 0 0 512-512 0z m16 496l480 0 0-480-480 0z"/>
<glyph unicode="&#57460;" d="M210 386l131-130-131-130 13-12 137 136 0 12-137 136z m-210-386l512 0 0 512-512 0z m16 496l480 0 0-480-480 0z"/>
<glyph unicode="&#57461;" d="M250 336l-136-137 12-12 130 130 130-131 12 13-136 137z m-250-336l512 0 0 512-512 0z m16 496l480 0 0-480-480 0z"/>
<glyph unicode="&#57462;" d="M176 328l0-192 16 0 0 184 184 0 0 16-192 0z m-176-328l512 0 0 512-512 0z m16 496l480 0 0-480-480 0z"/>
<glyph unicode="&#57463;" d="M136 336l0-16 184 0 0-184 16 0 0 192-8 8z m-136-336l512 0 0 512-512 0z m16 496l480 0 0-480-480 0z"/>
<glyph unicode="&#57464;" d="M232 512l-232 0 0-232 232 0z m-16-216l-200 0 0 200 200 0z m64-16l232 0 0 232-232 0z m16 216l200 0 0-200-200 0z m-64-264l-232 0 0-232 232 0z m-16-216l-200 0 0 200 200 0z m64-16l232 0 0 232-232 0z m16 216l200 0 0-200-200 0z"/>
<glyph unicode="&#57465;" d="M416 512l0-16 69 0-187-186 12-12 186 187 0-69 16 0 0 88-8 8z m-214-298l-186-187 0 69-16 0 0-88 8-8 88 0 0 16-69 0 187 186z m112-28l-128 128 12 12 128-128z"/>
<glyph unicode="&#57466;" d="M496 27l-186 187-12-12 187-186-69 0 0-16 88 0 8 8 0 88-16 0z m-294 271l12 12-187 186 69 0 0 16-88 0-8-8 0-88 16 0 0 69z m-16-100l128 128 12-12-128-128z"/>
<glyph unicode="&#57467;" d="M416 512l0-16 69 0-229-229-242 243-12-12 243-242-229-229 0 69-16 0 0-88 8-8 88 0 0 16-69 0 229 229 242-243 12 12-243 242 229 229 0-69 16 0 0 88-8 8z"/>
<glyph unicode="&#57468;" d="M496 27l-229 229 243 242-12 12-242-243-229 229 69 0 0 16-88 0-8-8 0-88 16 0 0 69 229-229-243-242 12-12 242 243 229-229-69 0 0-16 88 0 8 8 0 88-16 0z"/>
<glyph unicode="&#57469;" d="M434 314l51-50-181 0 0-16 181 0-51-50 13-12 65 64 0 12-65 64z m-356 0l-13 12-65-64 0-12 65-64 12 12-50 50 181 0 0 16-181 0z m170 30l16 0 0-176-16 0z"/>
<glyph unicode="&#57470;" d="M434 314l51-50-221 0 0 248-16 0 0-248-221 0 51 50-13 12-65-64 0-12 65-64 12 12-50 50 221 0 0-248 16 0 0 248 221 0-51-50 13-12 65 64 0 12-65 64z"/>
<glyph unicode="&#57471;" d="M250 512l-64-65 12-12 50 50 0-181 16 0 0 181 50-51 12 13-64 65z m14-485l0 181-16 0 0-181-50 51-12-13 64-65 12 0 64 65-12 12z m-96 237l176 0 0-16-176 0z"/>
<glyph unicode="&#57472;" d="M264 485l50-51 12 13-64 65-12 0-64-65 12-12 50 50 0-221-248 0 0-16 248 0 0-221-50 51-12-13 64-65 12 0 64 65-12 12-50-50 0 221 248 0 0 16-248 0z"/>
<glyph unicode="&#57473;" d="M439 98l73 72 0 12-73 72-12-12 58-58-413 0 0-16 413 0-58-58z m-365 316l-74-72 0-12 74-72 12 12-58 58 412 0 0 16-412 0 58 58z"/>
<glyph unicode="&#57474;" d="M344 72l1 413 58-59 11 13-72 73-11 0-72-73 11-12 59 58-1-413z m-245 1l72-73 11 0 72 73-11 12-58-58-1 413-16 0 1-413-59 58z"/>
<glyph unicode="&#57475;" d="M398 199l-136 137-12 0-136-137 12-12 130 130 130-130z"/>
<glyph unicode="&#57476;" d="M250 392l-136-137 12-12 130 130 130-130 12 12-136 137z m0-120l-136-137 12-12 130 130 130-130 12 12-136 137z"/>
<glyph unicode="&#57477;" d="M192 320l184 0 0 16-192 0-8-8 0-192 16 0z"/>
<glyph unicode="&#57478;" d="M336 136l0 192-8 8-192 0 0-16 184 0 0-184z"/>
<glyph unicode="&#57479;" d="M206 70l-12-13 56-57 12 0 56 57-12 12-42-42 0 458 42-43 12 13-56 57-12 0-56-57 12-12 42 42 0-458z"/>
</font></defs></svg>
