<?xml version="1.0" standalone="no"?>
<!DOCTYPE svg PUBLIC "-//W3C//DTD SVG 1.1//EN" "http://www.w3.org/Graphics/SVG/1.1/DTD/svg11.dtd">
<svg xmlns="http://www.w3.org/2000/svg">
<metadata>Generated by Fontastic.me</metadata>
<defs>
<font id="linea-software-10" horiz-adv-x="512">
<font-face font-family="linea-software-10" units-per-em="512" ascent="480" descent="-32"/>
<missing-glyph horiz-adv-x="512" />

<glyph unicode="&#97;" d="M96 85l67 67 13 0 0 16-8 0 0 8-16 0 0-13-67-67-85 0 0-96 96 0z m-16-69l-64 0 0 64 64 0z m336 411l-67-67-13 0 0-16 8 0 0-8 16 0 0 13 67 67 85 0 0 96-96 0z m16 69l64 0 0-64-64 0z m-240-136l32 0 0-16-32 0z m96 0l32 0 0-16-32 0z m-48 0l32 0 0-16-32 0z m-72-16l8 0 0 16-24 0 0-24 16 0z m-16-120l16 0 0-32-16 0z m0 96l16 0 0-32-16 0z m0-48l16 0 0-32-16 0z m40-104l32 0 0-16-32 0z m48 0l32 0 0-16-32 0z m48 0l32 0 0-16-32 0z m56 0l-8 0 0-16 24 0 0 24-16 0z m0 104l16 0 0-32-16 0z m0-48l16 0 0-32-16 0z m0 96l16 0 0-32-16 0z m-144-72l48 0 0-48 16 0 0 48 48 0 0 16-48 0 0 48-16 0 0-48-48 0z"/>
<glyph unicode="&#98;" d="M256 88c141 0 256 75 256 168 0 93-115 168-256 168-141 0-256-75-256-168 0-93 115-168 256-168z m-240 160l232 0 0-144c-124 3-225 66-232 144z m248-144l0 144 232 0c-7-78-108-141-232-144z m232 160l-232 0 0 144c124-3 225-66 232-144z m-248 144l0-144-232 0c7 78 108 141 232 144z"/>
<glyph unicode="&#99;" d="M383 32l127 224-127 224-254 0-127-224 127-224z m-233 16l106 192 106-192z m342 208l-115-202-112 202 112 202z m-236 16l-106 192 212 0z m-121 186l112-202-112-202-115 202z"/>
<glyph unicode="&#100;" d="M0 88l512 0 0 336-512 0z m271 168l225 145 0-290z m206-152l-442 0 221 142z m-221 162l-221 142 442 0z m-15-10l-225-145 0 290z"/>
<glyph unicode="&#101;" d="M104 88l304 0c57 0 104 47 104 104l0 128c0 57-47 104-104 104l-304 0c-57 0-104-47-104-104l0-128c0-57 47-104 104-104z m0 16c-18 0-36 6-50 16l202 127 202-127c-14-10-32-16-50-16z m392 216l0-128c0-24-10-46-25-62l-200 126 200 126c15-16 25-38 25-62z m-88 88c18 0 36-6 50-16l-202-127-202 127c14 10 32 16 50 16z m-392-88c0 24 10 46 25 62l200-126-200-126c-15 16-25 38-25 62z"/>
<glyph unicode="&#102;" d="M88 95l16-6 39 111 154 0 39-113 16 6-122 347-20 0z m203 121l-143 0 72 203z m117 296l16 0 0-512-16 0z"/>
<glyph unicode="&#103;" d="M432 421l78 77-12 12-77-78-325 0 0 80-16 0 0-80-80 0 0-16 80 0 0-336 336 0 0-80 16 0 0 80 80 0 0 16-80 0z m-27-5l-309-309 0 309z m-298-320l309 309 0-309z"/>
<glyph unicode="&#104;" d="M432 512l-3 0-3-2c0 0-20-21-32-32l-90-91-32 32-43-43 36-36-241-257 0-16-27-27 43-43 27 27 16 0 257 241 36-36 43 43-32 32 125 125 0 3c0 40-40 80-80 80z m-355-472l-16 0-21-21-21 21 21 21 0 16 236 252 53-53z m299 211l-125 125 21 21 125-125z m0 64l-61 61 91 90c9 10 23 24 29 30 29-2 59-32 61-61z"/>
<glyph unicode="&#105;" d="M73 192l134 0 33-91 15 6-105 285-20 0-106-285 15-6z m67 180l61-164-122 0z m165-180l134 0 33-91 15 6-105 285-20 0-106-285 15-6z m67 180l61-164-122 0z m140 140l-512 0 0-512 512 0z m-16-496l-480 0 0 480 480 0z"/>
<glyph unicode="&#106;" d="M242 272l38-107 16 6-122 341-20 0-122-341 16-6 38 107z m-78 219l73-203-146 0z m230-35l-66-189 16-6 17 51 86 0 17-51 16 6-66 189z m-27-128l37 107 37-107z m-351-184l288 0 0-16-288 0z m304 96l176 0 0-16-176 0z m96-240l0 173 42-43 12 13-56 57-12 0-56-57 12-12 42 42 0-173z"/>
<glyph unicode="&#107;" d="M338 264l38-107 16 6-122 341-20 0-122-341 16-6 38 107z m-78 219l73-203-146 0z m-195-357l-57-56 0-12 57-56 12 12-42 42 442 0-43-42 13-12 57 56 0 12-57 56-12-12 42-42-442 0 42 42z"/>
<glyph unicode="&#108;" d="M98 424l-66-189 16-6 17 51 86 0 17-51 16 6-66 189z m-27-128l37 107 37-107z m257-61l16-6 17 51 86 0 17-51 16 6-66 189-20 0z m113 61l-74 0 37 107z m-193 168l16 0 0-16-16 0z m0-224l16 0 0-32-16 0z m0 96l16 0 0-32-16 0z m0 48l16 0 0-32-16 0z m0-96l16 0 0-32-16 0z m0 144l16 0 0-32-16 0z m0-240l16 0 0-16-16 0z m199-190l57 56 0 12-57 56-12-12 42-42-442 0 43 42-13 12-57-56 0-12 57-56 12 12-42 42 442 0-42-42z"/>
<glyph unicode="&#109;" d="M346 512l-66-189 16-6 17 51 86 0 17-51 16 6-66 189z m-27-128l37 107 37-107z m-103-88l272 0 0-16-272 0z m183-192l17-51 16 6-66 189-20 0-66-189 16-6 17 51z m-43 123l37-107-74 0z m-140-195l272 0 0-16-272 0z m-70 202l12 13-56 57-12 0-56-57 12-12 42 42 0-242-42 43-12-13 56-57 12 0 56 57-12 12-42-42 0 242z"/>
<glyph unicode="&#110;" d="M426 272l38-107 16 6-122 341-20 0-122-341 16-6 38 107z m-78 219l73-203-146 0z m-197-275l17-51 16 6-66 189-20 0-66-189 16-6 17 51z m-43 123l37-107-74 0z m347-337l57 56 0 12-57 56-12-12 42-42-458 0 43 42-13 12-57-56 0-12 57-56 12 12-42 42 458 0-42-42z"/>
<glyph unicode="&#111;" d="M162 448l-122-341 16-6 38 107 156 0 38-107 16 6-122 341z m-63-224l73 203 73-203z m287 72l-66-189 16-6 17 51 86 0 17-51 16 6-66 189z m-27-128l37 107 37-107z m-359-168l512 0 0 512-512 0z m16 496l480 0 0-480-480 0z"/>
<glyph unicode="&#112;" d="M170 448l-122-341 16-6 38 107 156 0 38-107 16 6-122 341z m-63-224l73 203 73-203z m341-88l0 80c0 19-14 48-52 48-36 0-50-18-50-19l12-10c1 1 11 13 38 13 26 0 36-19 36-32l0-16-32 0c-22 0-64-10-64-48 0-31 17-48 48-48 22 0 37 7 48 20 3-10 16-20 24-20l0 16c-8 0-8 13-8 16z m-64-16c-14 0-32 3-32 32 0 31 46 32 48 32l32 0 0-16c0-40-26-48-48-48z m-384-120l512 0 0 512-512 0z m16 496l480 0 0-480-480 0z"/>
<glyph unicode="&#113;" d="M448 216c0 19-14 48-52 48-36 0-50-18-50-19l12-10c1 1 11 13 38 13 26 0 36-19 36-32l0-16-32 0c-19 0-51-7-61-32l-49 0-100 280-20 0-100-280-22 0 0-16 17 0-17-45 16-6 18 51 196 0 18-51 16 6-17 45 41 0c0-31 17-48 48-48 22 0 37 7 48 20 3-10 16-20 24-20l0 16c-8 0-8 13-8 16l0 16 16 0 0 16-16 0z m-268 211l67-187-134 0z m-93-259l20 56 146 0 20-56z m297-48c-14 0-32 3-32 32l78 0c-6-26-27-32-46-32z m-27 48c13 16 41 16 43 16l32 0 0-16z m-357-168l512 0 0 512-512 0z m16 496l480 0 0-480-480 0z"/>
<glyph unicode="&#114;" d="M80 229l17 51 86 0 17-51 16 6-66 189-20 0-66-189z m60 174l37-107-74 0z m222 21l-66-189 16-6 17 51 86 0 17-51 16 6-66 189z m-27-128l37 107 37-107z m-87 168l16 0 0-16-16 0z m0-128l16 0 0-32-16 0z m0-96l16 0 0-32-16 0z m0 48l16 0 0-32-16 0z m0 144l16 0 0-32-16 0z m0-48l16 0 0-32-16 0z m0-192l16 0 0-16-16 0z m-224 272l16 0 0-16-16 0z m0-176l16 0 0-32-16 0z m0 144l16 0 0-32-16 0z m0-192l16 0 0-32-16 0z m0 96l16 0 0-32-16 0z m0 48l16 0 0-32-16 0z m0-192l16 0 0-16-16 0z m448 272l16 0 0-16-16 0z m0-128l16 0 0-32-16 0z m0 48l16 0 0-32-16 0z m0-96l16 0 0-32-16 0z m0 144l16 0 0-32-16 0z m0-192l16 0 0-32-16 0z m0-48l16 0 0-16-16 0z m-25-190l57 56 0 12-57 56-12-12 42-42-442 0 43 42-13 12-57-56 0-12 57-56 12 12-42 42 442 0-42-42z"/>
<glyph unicode="&#115;" d="M107 224l146 0 43-123 16 6-122 341-20 0-122-341 16-6z m73 203l67-187-134 0z m220-227c-22 0-64-10-64-48 0-31 17-48 48-48 22 0 37 7 48 20 3-10 16-20 24-20l0 16c-8 0-8 13-8 16l0 80c0 19-14 48-52 48-36 0-50-18-50-19l12-10c1 1 11 13 38 13 26 0 36-19 36-32l0-16z m-16-80c-14 0-32 3-32 32 0 31 46 32 48 32l32 0 0-16c0-40-26-48-48-48z m128 392l-512 0 0-512 512 0z m-16-496l-480 0 0 480 480 0z m-448 64l416 0 0-16-416 0z"/>
<glyph unicode="&#116;" d="M240 85l38 107 156 0 38-107 16 6-122 341-20 0-122-341z m116 326l73-203-146 0z m-210 23l12 13-56 57-12 0-56-57 12-12 42 42 0-442-42 43-12-13 56-57 12 0 56 57-12 12-42-42 0 442z"/>
<glyph unicode="&#117;" d="M40 240l0-144 208 0 0-96 16 0 0 96 208 0 0 144-208 0 0 32 160 0 0 144-160 0 0 96-16 0 0-96-160 0 0-144 160 0 0-32z m64 160l304 0 0-112-304 0z m352-288l-400 0 0 112 400 0z"/>
<glyph unicode="&#118;" d="M0 512l16 0 0-512-16 0z m480-272l-432 0 0-144 432 0z m-16-128l-400 0 0 112 400 0z m-416 304l0-144 336 0 0 144z m320-128l-304 0 0 112 304 0z"/>
<glyph unicode="&#119;" d="M496 512l16 0 0-512-16 0z m-32-272l-432 0 0-144 432 0z m-16-128l-400 0 0 112 400 0z m16 304l-336 0 0-144 336 0z m-16-128l-304 0 0 112 304 0z"/>
<glyph unicode="&#120;" d="M160 472l-64 0 0-432 64 0 0-40 16 0 0 40 64 0 0 432-64 0 0 40-16 0z m64-416l-112 0 0 400 112 0z m48 32l64 0 0-88 16 0 0 88 64 0 0 336-64 0 0 88-16 0 0-88-64 0z m16 320l112 0 0-304-112 0z"/>
<glyph unicode="&#121;" d="M272 512l0-512 16 0 0 88 128 0 0 336-128 0 0 88z m128-104l0-304-112 0 0 304z m-304 104l0-512 16 0 0 40 128 0 0 432-128 0 0 40z m128-56l0-400-112 0 0 400z"/>
<glyph unicode="&#122;" d="M240 0l0 512-16 0 0-40-128 0 0-432 128 0 0-40z m-128 56l0 400 112 0 0-400z m304-56l0 512-16 0 0-88-128 0 0-336 128 0 0-88z m-128 104l0 304 112 0 0-304z"/>
<glyph unicode="&#65;" d="M240 440l272 0 0-16-272 0z m-64-80l248 0 0-16-248 0z m0-80l336 0 0-16-336 0z m0-80l272 0 0-16-272 0z m0-80l336 0 0-16-336 0z m0-80l288 0 0-16-288 0z m-54 342l13-12 57 56 0 12-57 56-12-12 42-42-165 0 0-16 165 0z"/>
<glyph unicode="&#66;" d="M240 464l272 0 0-16-272 0z m0-80l176 0 0-16-176 0z m0-80l272 0 0-16-272 0z m0-80l200 0 0-16-200 0z m0-80l272 0 0-16-272 0z m0-80l216 0 0-16-216 0z m-48 448l16 0 0-512-16 0z m-102-306l13-12 57 56 0 12-57 56-12-12 42-42-133 0 0-16 133 0z"/>
<glyph unicode="&#67;" d="M0 464l272 0 0-16-272 0z m96-80l176 0 0-16-176 0z m-96-80l272 0 0-16-272 0z m72-80l200 0 0-16-200 0z m-72-80l272 0 0-16-272 0z m56-80l216 0 0-16-216 0z m248 448l16 0 0-512-16 0z m118-206l-13 12-57-56 0-12 57-56 12 12-42 42 133 0 0 16-133 0z"/>
<glyph unicode="&#68;" d="M256 472c-141 0-256-74-256-164 0-63 56-118 139-146-16-7-27-19-27-34 0-22 25-40 56-40 12 0 22 2 31 7 4-4 9-10 9-23 0-15-7-16-8-16l0-16c8 0 24 7 24 32 0 16-6 26-11 32 7 6 11 15 11 24 0 6-2 12-6 18 13-1 25-2 38-2 141 0 256 74 256 164 0 90-115 164-256 164z m-128-344c0 13 18 24 40 24 22 0 40-11 40-24 0-13-18-24-40-24-22 0-40 11-40 24z m128 32c-132 0-240 66-240 148 0 82 108 148 240 148 132 0 240-66 240-148 0-82-108-148-240-148z"/>
<glyph unicode="&#69;" d="M256 417l-261-113 125-50-125-54 261-105 261 105-125 54 125 50z m219-217l-219-87-219 87 104 45 115-46 115 46z m-104 63l0 0-115-46-115 46 0 0 0 0-104 41 219 95 219-95-104-41z"/>
<glyph unicode="&#70;" d="M256 465l-261-113 125-50-125-54 125-50-125-54 261-105 261 105-125 54 125 50-125 54 125 50z m219-321l-219-87-219 87 104 45 115-46 115 46z m0 104l-104-41 0 0 0 0-115-46-115 46 0 0 0 0-104 41 104 45 115-46 115 46z m-104 63l0 0-115-46-115 46 0 0 0 0-104 41 219 95 219-95-104-41z"/>
<glyph unicode="&#71;" d="M0 0l512 0 0 512-512 0z m16 496l480 0 0-480-480 0z"/>
<glyph unicode="&#72;" d="M248 512l-248 0 0-512 512 0 0 512z m0-496l-232 0 0 480 232 0z m248 480l0-480-232 0 0 480z"/>
<glyph unicode="&#73;" d="M336 512l-336 0 0-512 512 0 0 512z m-176-496l-144 0 0 480 144 0z m176 0l-160 0 0 480 160 0z m160 480l0-480-144 0 0 480z"/>
<glyph unicode="&#74;" d="M248 512l-248 0 0-512 512 0 0 512z m-232-16l232 0 0-232-232 0z m232-480l-232 0 0 232 232 0z m248 0l-232 0 0 232 232 0z m0 480l0-232-232 0 0 232z"/>
<glyph unicode="&#75;" d="M368 512l-368 0 0-512 512 0 0 512z m-248-496l-104 0 0 480 104 0z m128 0l-112 0 0 480 112 0z m120 0l-104 0 0 480 104 0z m128 480l0-480-112 0 0 480z"/>
<glyph unicode="&#76;" d="M0 392l0-392 512 0 0 512-512 0z m496-376l-480 0 0 112 480 0z m0 128l-480 0 0 104 480 0z m0 120l-480 0 0 112 480 0z m-480 232l480 0 0-104-480 0z"/>
<glyph unicode="&#77;" d="M248 512l-248 0 0-512 512 0 0 512z m-232-16l232 0 0-112-232 0z m0-128l232 0 0-104-232 0z m0-120l232 0 0-112-232 0z m232-232l-232 0 0 104 232 0z m248 0l-232 0 0 104 232 0z m0 120l-232 0 0 112 232 0z m0 128l-232 0 0 104 232 0z m0 232l0-112-232 0 0 112z"/>
<glyph unicode="&#78;" d="M0 400l0-400 512 0 0 512-512 0z m496-384l-480 0 0 368 480 0z m-480 480l480 0 0-96-480 0z"/>
<glyph unicode="&#79;" d="M0 400l0-400 512 0 0 512-512 0z m248-384l-232 0 0 368 232 0z m248 0l-232 0 0 368 232 0z m-480 480l480 0 0-96-480 0z"/>
<glyph unicode="&#80;" d="M0 400l0-400 512 0 0 512-512 0z m160-384l-144 0 0 368 144 0z m176 0l-160 0 0 368 160 0z m160 0l-144 0 0 368 144 0z m-480 480l480 0 0-96-480 0z"/>
<glyph unicode="&#81;" d="M0 400l0-400 512 0 0 512-512 0z m16-16l232 0 0-176-232 0z m232-368l-232 0 0 176 232 0z m248 0l-232 0 0 176 232 0z m0 192l-232 0 0 176 232 0z m-480 288l480 0 0-96-480 0z"/>
<glyph unicode="&#82;" d="M0 400l0-400 512 0 0 512-512 0z m120-384l-104 0 0 368 104 0z m128 0l-112 0 0 368 112 0z m120 0l-104 0 0 368 104 0z m128 0l-112 0 0 368 112 0z m-480 480l480 0 0-96-480 0z"/>
<glyph unicode="&#83;" d="M0 400l0-400 512 0 0 512-512 0z m16-16l152 0 0-368-152 0z m168-368l0 184 312 0 0-184z m312 200l-312 0 0 168 312 0z m-480 280l480 0 0-96-480 0z"/>
<glyph unicode="&#84;" d="M0 400l0-400 512 0 0 512-512 0z m328-184l-312 0 0 168 312 0z m-312-16l312 0 0-184-312 0z m480-184l-152 0 0 368 152 0z m-480 480l480 0 0-96-480 0z"/>
<glyph unicode="&#85;" d="M0 400l0-400 512 0 0 512-512 0z m248-384l-232 0 0 368 232 0z m120 0l-104 0 0 368 104 0z m128 0l-112 0 0 368 112 0z m-480 480l480 0 0-96-480 0z"/>
<glyph unicode="&#86;" d="M0 400l0-400 512 0 0 512-512 0z m248-384l-232 0 0 368 232 0z m120 0l-104 0 0 368 104 0z m128 0l-112 0 0 368 112 0z m-480 480l480 0 0-96-480 0z"/>
<glyph unicode="&#87;" d="M0 400l0-400 512 0 0 512-512 0z m16-16l152 0 0-368-152 0z m480-368l-312 0 0 368 312 0z m-480 480l480 0 0-96-480 0z"/>
<glyph unicode="&#88;" d="M0 400l0-400 512 0 0 512-512 0z m16-16l312 0 0-368-312 0z m480-368l-152 0 0 368 152 0z m-480 480l480 0 0-96-480 0z"/>
<glyph unicode="&#89;" d="M160 512l-160 0 0-512 512 0 0 512z m0-496l-144 0 0 480 144 0z m336 480l0-480-320 0 0 480z"/>
<glyph unicode="&#90;" d="M336 512l-336 0 0-512 512 0 0 512z m0-496l-320 0 0 480 320 0z m160 480l0-480-144 0 0 480z"/>
<glyph unicode="&#48;" d="M80 512l0-336c0-97 79-176 176-176 97 0 176 79 176 176l0 336-120 0 0-336c0-31-25-56-56-56-31 0-56 25-56 56l0 336z m104-16l0-56-88 0 0 56z m232 0l0-56-88 0 0 56z m-160-392c40 0 72 32 72 72l0 248 88 0 0-248c0-88-72-160-160-160-88 0-160 72-160 160l0 248 88 0 0-248c0-40 32-72 72-72z"/>
<glyph unicode="&#49;" d="M264 432l0 32-16 0 0-32-163 0-85-85 0-267 248 0 0-32 16 0 0 32 248 0 0 267-85 85z m168-27l53-53-53 0z m-352 0l0-53-53 0z m-64-309l0 240 80 0 0 80 152 0 0-320z m248 0l0 320 152 0 0-80 80 0 0-240z"/>
<glyph unicode="&#50;" d="M170 246l-30-31c-8-2-36-11-65-33-52-39-74-167-75-173l-1-9 9 0c132 0 200 125 207 139l31 32 269 326-18 18z m6-17l53-53-21-21-53 53z m-158-213c6 31 28 124 67 154 23 17 47 26 57 29l56-57c-12-23-72-120-180-126z m221 172l-51 51 294 243z"/>
<glyph unicode="&#51;" d="M216 512c-26 0-48-22-48-48l0-101-152-149 0-12 202-202 12 0 206 207 53 8 5 16-224 225-6 0 0 8c0 26-22 48-48 48z m-32-48c0 18 14 32 32 32 18 0 32-14 32-32l0-21-64-64z m287-234l-40-6-5-2-202-203-189 189 213 213 0-125 16 0 0 141z"/>
<glyph unicode="&#52;" d="M496 312l0 136-48 0 0 64-400 0 0-64-32 0 0-16 32 0 0-72 400 0 0 72 32 0 0-104-232 0 0-144-32 0 0-184 80 0 0 184-32 0 0 128z m-64 64l-368 0 0 120 368 0z m-152-208l0-152-48 0 0 152z"/>
<glyph unicode="&#53;" d="M416 0l0 512-184 0c-1 0-136-2-136-136 0-134 135-136 136-136l88 0 0-240 16 0 0 496 64 0 0-496z m-184 256c-5 0-120 2-120 120 0 118 115 120 120 120l88 0 0-240z"/>
<glyph unicode="&#54;" d="M0 464l512 0 0-16-512 0z m0-80l368 0 0-16-368 0z m0-80l512 0 0-16-512 0z m0-80l400 0 0-16-400 0z m0-80l512 0 0-16-512 0z m0-80l432 0 0-16-432 0z"/>
<glyph unicode="&#55;" d="M0 464l512 0 0-16-512 0z m144-80l368 0 0-16-368 0z m-144-80l512 0 0-16-512 0z m112-80l400 0 0-16-400 0z m-112-80l512 0 0-16-512 0z m80-80l432 0 0-16-432 0z"/>
<glyph unicode="&#56;" d="M0 464l512 0 0-16-512 0z m72-80l368 0 0-16-368 0z m-72-80l512 0 0-16-512 0z m56-80l400 0 0-16-400 0z m-56-80l512 0 0-16-512 0z m40-80l432 0 0-16-432 0z"/>
<glyph unicode="&#57;" d="M0 464l512 0 0-16-512 0z m0-80l512 0 0-16-512 0z m0-80l512 0 0-16-512 0z m0-80l512 0 0-16-512 0z m0-80l512 0 0-16-512 0z m0-80l512 0 0-16-512 0z"/>
<glyph unicode="&#33;" d="M0 464l512 0 0-16-512 0z m0-80l512 0 0-16-512 0z m0-80l512 0 0-16-512 0z m0-80l512 0 0-16-512 0z m0-80l512 0 0-16-512 0z m80-80l352 0 0-16-352 0z"/>
<glyph unicode="&#34;" d="M0 464l512 0 0-16-512 0z m0-80l512 0 0-16-512 0z m0-80l512 0 0-16-512 0z m0-80l512 0 0-16-512 0z m0-80l512 0 0-16-512 0z m0-80l352 0 0-16-352 0z"/>
<glyph unicode="&#35;" d="M0 464l512 0 0-16-512 0z m0-80l512 0 0-16-512 0z m0-80l512 0 0-16-512 0z m0-80l512 0 0-16-512 0z m0-80l512 0 0-16-512 0z m160-80l352 0 0-16-352 0z"/>
<glyph unicode="&#36;" d="M176 472l336 0 0-16-336 0z m0-80l272 0 0-16-272 0z m0-80l336 0 0-16-336 0z m0-80l288 0 0-16-288 0z m280-96l8 0 0-8 16 0 0 24-24 0z m-144 16l32 0 0-16-32 0z m-96 0l32 0 0-16-32 0z m144 0l32 0 0-16-32 0z m-96 0l32 0 0-16-32 0z m144 0l32 0 0-16-32 0z m-216-16l8 0 0 16-24 0 0-24 16 0z m-16-24l16 0 0-24-16 0z m0-56l24 0 0 16-8 0 0 8-16 0z m232 16l32 0 0-16-32 0z m-48 0l32 0 0-16-32 0z m-48 0l32 0 0-16-32 0z m-48 0l32 0 0-16-32 0z m-48 0l32 0 0-16-32 0z m248 0l-8 0 0-16 24 0 0 24-16 0z m0 40l16 0 0-24-16 0z m-390-58l13-12 57 56 0 12-57 56-12-12 42-42-117 0 0-16 117 0z"/>
<glyph unicode="&#37;" d="M176 288l336 0 0-16-336 0z m0-80l272 0 0-16-272 0z m0-80l336 0 0-16-336 0z m0-80l288 0 0-16-288 0z m304 400l-24 0 0-16 8 0 0-8 16 0z m-120 0l32 0 0-16-32 0z m-48 0l32 0 0-16-32 0z m96 0l32 0 0-16-32 0z m-144 0l32 0 0-16-32 0z m-48 0l32 0 0-16-32 0z m-24-16l8 0 0 16-24 0 0-24 16 0z m-16-24l16 0 0-24-16 0z m0-56l24 0 0 16-8 0 0 8-16 0z m40 16l32 0 0-16-32 0z m48 0l32 0 0-16-32 0z m48 0l32 0 0-16-32 0z m96 0l32 0 0-16-32 0z m-48 0l32 0 0-16-32 0z m96-16l24 0 0 24-16 0 0-8-8 0z m8 56l16 0 0-24-16 0z m-390-58l13-12 57 56 0 12-57 56-12-12 42-42-117 0 0-16 117 0z"/>
<glyph unicode="&#38;" d="M336 512l-336 0 0-336 176 0 0-176 336 0 0 336-176 0z m-320-16l304 0 0-160-144 0 0-144-160 0z m304-176l0-128-128 0 0 128z m176-304l-304 0 0 160 144 0 0 144 160 0z"/>
<glyph unicode="&#39;" d="M336 320l24 0 0 16-24 0 0 24-16 0 0-24-144 0 0-144-24 0 0-16 24 0 0-24 16 0 0 24 144 0z m-144-128l0 128 128 0 0-128z m-56 320l32 0 0-16-32 0z m-120-16l8 0 0 16-24 0 0-24 16 0z m168 16l32 0 0-16-32 0z m-128-320l32 0 0-16-32 0z m32 320l32 0 0-16-32 0z m16-320l32 0 0-16-32 0z m-104 184l16 0 0-32-16 0z m40 136l32 0 0-16-32 0z m-40-40l16 0 0-32-16 0z m8-280l32 0 0-16-32 0z m-8 232l16 0 0-32-16 0z m0-96l16 0 0-32-16 0z m280 184l32 0 0-16-32 0z m40-104l16 0 0-32-16 0z m-88 104l32 0 0-16-32 0z m-232-280l16 0 0-32-16 0z m320 224l16 0 0-32-16 0z m-320-176l16 0 0-32-16 0z m320 224l16 0 0-32-16 0z m192-480l-16 0 0-8-8 0 0-16 24 0z m-16 48l16 0 0-32-16 0z m-24 264l32 0 0-16-32 0z m24-120l16 0 0-32-16 0z m0-48l16 0 0-32-16 0z m0-48l16 0 0-32-16 0z m-248-104l32 0 0-16-32 0z m48 0l32 0 0-16-32 0z m-96 0l32 0 0-16-32 0z m296 248l16 0 0-32-16 0z m-320-128l16 0 0-32-16 0z m168-120l32 0 0-16-32 0z m-168 24l16 0 0-32-16 0z m264-24l32 0 0-16-32 0z m56 296l16 0 0-32-16 0z m-104-296l32 0 0-16-32 0z m-16 320l32 0 0-16-32 0z m48 0l32 0 0-16-32 0z m-248-248l16 0 0-32-16 0z"/>
<glyph unicode="&#40;" d="M400 336l32 0 0-16-32 0z m48 0l24 0 0-16-24 0z m-88 0l24 0 0-16-24 0z m152 0l-24 0 0-16 8 0 0-8 16 0z m-16-264l16 0 0-32-16 0z m0 40l16 0 0-24-16 0z m0 96l16 0 0-32-16 0z m0 40l16 0 0-24-16 0z m0 48l16 0 0-32-16 0z m0-136l16 0 0-32-16 0z m0-144l-8 0 0-16 24 0 0 24-16 0z m-280 0l32 0 0-16-32 0z m48 0l24 0 0-16-24 0z m40 0l32 0 0-16-32 0z m136 0l32 0 0-16-32 0z m-88 0l32 0 0-16-32 0z m48 0l24 0 0-16-24 0z m-224-16l24 0 0 16-8 0 0 8-16 0z m0 112l16 0 0-32-16 0z m0-48l16 0 0-24-16 0z m0 88l16 0 0-24-16 0z m0 16l16 0 0 152 152 0 0 16-8 0 0 176-336 0 0-336 176 0z m-160 328l304 0 0-160-144 0 0-144-160 0z"/>
<glyph unicode="&#41;" d="M320 248l16 0 0-32-16 0z m0 48l16 0 0-32-16 0z m0-104l-8 0 0-16 24 0 0 24-16 0z m-56 0l32 0 0-16-32 0z m-48 0l32 0 0-16-32 0z m120 320l-336 0 0-336 176 0 0-176 336 0 0 336-176 0z m160-496l-304 0 0 160 8 0 0 16-8 0 0 8-16 0 0-8-160 0 0 304 304 0 0-160-8 0 0-16 8 0 0-8 16 0 0 8 160 0z m-320 280l16 0 0-32-16 0z m0-48l16 0 0-32-16 0z m0 64l16 0 0 8 8 0 0 16-24 0z m88 24l32 0 0-16-32 0z m-48 0l32 0 0-16-32 0z"/>
<glyph unicode="&#42;" d="M336 48l32 0 0 96-32 0 0 22 57 106-137 249-137-249 57-106 0-22-32 0 0-96 32 0 0-48 160 0z m-80 257c13 0 24-11 24-24 0-13-11-24-24-24-13 0-24 11-24 24 0 13 11 24 24 24z m-119-33l111 201 0-153c-18-4-32-20-32-39 0-22 18-40 40-40 22 0 40 18 40 40 0 19-14 35-32 39l0 153 111-201-55-102 0-26-128 0 0 26z m23-208l0 64 192 0 0-64z m160-48l-128 0 0 32 128 0z"/>
<glyph unicode="&#43;" d="M176 166l0-22-32 0 0-96 32 0 0-48 160 0 0 48 32 0 0 96-32 0 0 22 57 106-137 249-137-249z m144-150l-128 0 0 32 128 0z m32 48l-192 0 0 64 192 0z m23 208l-55-102 0-26-128 0 0 26-55 102 119 215z m-127-56l16 0 0 48 48 0 0 16-48 0 0 48-16 0 0-48-48 0 0-16 48 0z"/>
<glyph unicode="&#44;" d="M176 166l0-22-32 0 0-96 32 0 0-48 160 0 0 48 32 0 0 96-32 0 0 22 57 106-137 249-137-249z m144-150l-128 0 0 32 128 0z m32 48l-192 0 0 64 192 0z m23 208l-55-102 0-26-128 0 0 26-55 102 119 215z m-175 8l112 0 0-16-112 0z"/>
<glyph unicode="&#45;" d="M74 166l-1-1-75-151 16-16 151 75 350 351-91 91z m17-6l261 261 69-69-261-261z m272 272l21 21 69-69-21-21z m-281-286l64-64-61-30-6 27-27 6z m-38-75l21-6 6-21-53-26z m420 324l-69 69 29 29 69-69z"/>
<glyph unicode="&#46;" d="M480 522l-162-145-292 49 138-298c-30-2-52-19-52-40 0-22 25-40 56-40 12 0 22 2 31 7 4-4 9-10 9-23 0-15-7-16-8-16l0-16c8 0 24 7 24 32 0 16-6 26-11 32 7 6 11 15 11 24 0 4-1 8-2 12l258 78z m-352-434c0 13 18 24 40 24 22 0 40-11 40-24 0-13-18-24-40-24-22 0-40 11-40 24z m336 102l-252-77c-8 7-18 12-30 14l-128 279 268-47 142 127z"/>
<glyph unicode="&#47;" d="M0 395l0-358 179 179z m16-38l141-141-141-141z m496-285l-13 0-1 1-1-1-1 0 0-1-9-9 25-25z m-16 136l16 0 0-32-16 0z m0-48l16 0 0-24-16 0z m0 96l16 0 0-32-16 0z m0-136l16 0 0-32-16 0z m0 176l16 0 0-24-16 0z m0 48l16 0 0-32-16 0z m16 51l-25-25 9-9 0-1 1 0 1-1 1 1 13 0z m-109-131l-11 11 21 21 11-11z m64 63l-12 12 21 21 12-12z m-95-95l-12 12 21 21 12-12z m73 96l11-11-21-21-11 11z m-112-112l17-17 11 11-6 6 6 6-11 11z m91-91l11 11 21-21-11-11z m31-32l12 12 21-21-12-12z m-52 75l21-21-11-11-21 21z m-31 32l21-21-12-12-21 21z m-124-160l16 0 0-16-16 0z m0 144l16 0 0-32-16 0z m0 96l16 0 0-32-16 0z m0-48l16 0 0-32-16 0z m0-96l16 0 0-32-16 0z m0-48l16 0 0-32-16 0z m0 288l16 0 0-32-16 0z m0-48l16 0 0-32-16 0z m0 80l16 0 0-16-16 0z m200 23c-46 52-113 81-192 81-87 0-161-35-207-99l14-10c42 60 111 93 193 93 76 0 141-28 184-80l-72 0 0-16 88 0 8 8 0 88-16 0z"/>
<glyph unicode="&#58;" d="M208 333l179 179-358 0z m0 22l-141 141 282 0z m-144-342l1 1-1 1 0 1-1 0-9 9-25-25 35 0z m104 3l32 0 0-16-32 0z m96 0l24 0 0-16-24 0z m40 0l32 0 0-16-32 0z m-176 0l24 0 0-16-24 0z m-48 0l32 0 0-16-32 0z m136 0l32 0 0-16-32 0z m137 0l-1 0 0-1-1-1 1-1 0-13 35 0-25 25z m-44 40l-21 21 11 11 21-21z m31-32l-21 21 12 12 21-21z m-95 95l-21 21 12 12 21-21z m32-31l-21 21 11 11 21-21z m-75 63l6 6 6-6 11 11-17 17-17-17z m-31-32l-12 12 21 21 12-12z m-43-42l-21-21-11 11 21 21z m-43-20l12-12-21-21-12 12z m75 52l-21-21-11 11 21 21z m-144 159l16 0 0-16-16 0z m32-4l32 0 0-16-32 0z m144 0l32 0 0-16-32 0z m48 0l32 0 0-16-32 0z m48 0l32 0 0-16-32 0z m-144 0l32 0 0-16-32 0z m192 0l32 0 0-16-32 0z m-240 0l32 0 0-16-32 0z m288 4l16 0 0-16-16 0z m29 195l-10-14c60-42 93-111 93-193 0-76-28-141-80-184l0 72-16 0 0-88 8-8 88 0 0 16-65 0c52 46 81 113 81 192 0 87-35 161-99 207z"/>
<glyph unicode="&#59;" d="M96 85l67 67 13 0 0 16-8 0 0 8-16 0 0-13-67-67-85 0 0-96 96 0z m-16-69l-64 0 0 64 64 0z m336 411l-67-67-13 0 0-16 8 0 0-8 16 0 0 13 67 67 85 0 0 96-96 0z m16 69l64 0 0-64-64 0z m-144-136l32 0 0-16-32 0z m-96 0l32 0 0-16-32 0z m48 0l32 0 0-16-32 0z m-72-16l8 0 0 16-24 0 0-24 16 0z m-16-24l16 0 0-32-16 0z m0-48l16 0 0-32-16 0z m0-48l16 0 0-32-16 0z m88-56l32 0 0-16-32 0z m-48 0l32 0 0-16-32 0z m96 0l32 0 0-16-32 0z m56 0l-8 0 0-16 24 0 0 24-16 0z m0 56l16 0 0-32-16 0z m0 96l16 0 0-32-16 0z m0-48l16 0 0-32-16 0z m-144-8l112 0 0-16-112 0z"/>
<glyph unicode="&#60;" d="M128 512l32 0 0-16-32 0z m48 0l32 0 0-16-32 0z m48 0l32 0 0-16-32 0z m-192 0l32 0 0-16-32 0z m48 0l32 0 0-16-32 0z m304-496l32 0 0-16-32 0z m112 240l16 0 0-32-16 0z m-128 256l32 0 0-16-32 0z m128-352l16 0 0-32-16 0z m0 144l16 0 0-32-16 0z m-80 208l32 0 0-16-32 0z m-416-48l16 0 0-32-16 0z m0 48l16 0 0-32-16 0z m0-192l16 0 0-32-16 0z m496-208l16 0 0-32-16 0z m-160-96l32 0 0-16-32 0z m160 48l16 0 0-32-16 0z m-496 352l16 0 0-32-16 0z m0-48l16 0 0-32-16 0z m480-352l32 0 0-16-32 0z m16 192l16 0 0-32-16 0z m-64-192l32 0 0-16-32 0z m64 384l16 0 0-32-16 0z m0-48l16 0 0-32-16 0z m-176 160l32 0 0-16-32 0z m144 0l32 0 0-16-32 0z m32-16l16 0 0-32-16 0z m0-48l16 0 0-32-16 0z m-208-432l32 0 0-16-32 0z m-16 496l32 0 0-16-32 0z m-16-256l-256 0 0-256 256 0z m-16-240l-224 0 0 224 224 0z m94 306l114 115 0-69 16 0 0 88-8 8-88 0 0-16 69 0-115-114z"/>
<glyph unicode="&#61;" d="M0 272l16 0 0 224 480 0 0-480-224 0 0-16 240 0 0 512-512 0z m256-16l-24 0 0-16 8 0 0-8 16 0z m-72 0l32 0 0-16-32 0z m-144 0l32 0 0-16-32 0z m96 0l32 0 0-16-32 0z m-48 0l32 0 0-16-32 0z m-72-16l8 0 0 16-24 0 0-24 16 0z m-16-120l16 0 0-32-16 0z m0 48l16 0 0-32-16 0z m0 48l16 0 0-32-16 0z m0-144l16 0 0-32-16 0z m24-56l-8 0 0 8-16 0 0-24 24 0z m112 0l32 0 0-16-32 0z m-48 0l32 0 0-16-32 0z m96 0l32 0 0-16-32 0z m-144 0l32 0 0-16-32 0z m192-16l24 0 0 24-16 0 0-8-8 0z m8 168l16 0 0-32-16 0z m0 48l16 0 0-32-16 0z m0-96l16 0 0-32-16 0z m0-48l16 0 0-32-16 0z m80 344l0-88 8-8 88 0 0 16-69 0 115 114-12 12-114-115 0 69z"/>
<glyph unicode="&#62;" d="M152 119c-10 3-20 7-29 11l-7-15c10-4 21-8 31-11z m46-10c-11 1-21 3-31 6l-4-16c11-2 21-5 32-6z m29 314c-11-1-22-2-33-4l3-16c10 2 20 3 31 4z m48-15l1 16c-11 0-22 0-33 0l1-16c10 0 21 0 31 0z m-31-304c-10 0-21 1-31 2l-2-15c11-2 22-2 33-3z m49-14l-2 16c-10-1-20-2-31-2l0-16c11 0 22 1 33 2z m48 8l-3 15c-10-2-21-4-31-6l2-15c11 1 22 3 32 6z m-17 320c-10 2-21 3-32 4l-1-16c10-1 20-2 31-4z m48-12c-10 3-21 6-32 9l-3-16c10-2 20-5 30-8z m-313-258l10 13c-8 6-16 13-22 21l-12-11c7-8 15-16 24-23z m-2 193l-11 11c-8-7-16-16-22-25l13-9c6 8 12 16 20 23z m121 75c-11-2-21-5-32-8l5-15c10 3 20 5 30 7z m-175-135l15-3c3 9 6 18 11 27l-14 8c-6-10-10-21-12-32z m128 122c-11-4-21-8-30-13l7-15c9 5 19 9 28 13z m-45-21c-10-6-19-12-27-19l10-12c7 6 16 12 25 17z m23-246c-10 5-19 10-27 16l-9-14c9-6 18-11 29-16z m-85 48l13 9c-6 9-10 18-14 26l-15-5c4-11 10-21 16-30z m436 152c7-7 13-15 19-23l13 8c-6 9-13 18-21 27z m41-130l-15 7c-4-9-9-17-16-25l13-10c7 9 13 18 18 28z m10 68c-2 11-6 22-11 33l-14-7c4-9 7-19 9-29z m1-18l0 1-16-1c0-10-1-20-4-29l15-5c3 11 5 23 5 34z m-493-22c-2 7-3 15-3 22 0 2 0 5 0 7l-16 1c0-3 0-5 0-8 0-9 1-17 3-26z m398 153c-9 5-19 9-29 13l-6-15c10-3 19-8 28-13z m16-253l-9 14c-8-6-18-11-27-15l6-14c11 4 20 9 30 15z m-45-22l-6 15c-9-4-19-7-29-10l4-15c11 3 21 6 31 10z m71 247c-9 7-18 13-27 19l-9-13c9-6 18-12 25-18z m13-194l-12 11c-7-7-15-13-23-20l9-13c10 7 18 14 26 22z"/>
<glyph unicode="&#63;" d="M152 32l0 16-14 0-6 10-13-8 10-18z m-116 163l-16 29 14 8 16-29z m47-50l17-29-14-8-17 29z m25-44l16-29-14-8-16 29z m-49 87l16-29-14-8-16 29z m-57 68l10-18 14 8-6 10 6 10-14 8z m57 68l-14 8 16 29 14-8z m49 87l-14 8 16 29 14-8z m-74-131l-14 8 16 29 14-8z m49 87l-14 8 17 29 14-8z m36 95l13-8 6 10 14 0 0 16-23 0z m97 18l32 0 0-16-32 0z m48 0l32 0 0-16-32 0z m-96 0l32 0 0-16-32 0z m144 0l32 0 0-16-32 0z m48 0l0-16 14 0 6-10 13 8-10 18z m93-156l-16 29 14 8 16-29z m-49 87l-16 29 14 8 16-29z m25-44l-17 29 14 8 17-29z m49-87l-16 29 14 8 16-29z m32-24l-10 18-14-8 6-10-6-10 14-8z m-108-192l-14 8 16 29 14-8z m27 81l14-8-17-29-14 8z m24 43l14-8-16-29-14 8z m25 44l14-8-16-29-14 8z m-118-200l23 0 10 18-13 8-6-10-14 0z m-48 16l32 0 0-16-32 0z m-96 0l32 0 0-16-32 0z m48 0l32 0 0-16-32 0z m-96 0l32 0 0-16-32 0z"/>
<glyph unicode="&#64;" d="M496 104l-8 0 0-16 24 0 0 24-16 0z m-56 0l32 0 0-16-32 0z m-200 0l32 0 0-16-32 0z m-152 0l32 0 0-16-32 0z m200 0l32 0 0-16-32 0z m48 0l32 0 0-16-32 0z m-144 0l32 0 0-16-32 0z m200 0l32 0 0-16-32 0z m-256 0l40 0 0-16-40 0z m-96 0l32 0 0-16-32 0z m-16 0l-8 0 0 8-16 0 0-24 24 0z m-24 56l16 0 0-32-16 0z m0 40l16 0 0-24-16 0z m0 96l16 0 0-32-16 0z m0-48l16 0 0-32-16 0z m0 88l16 0 0-24-16 0z m0 48l16 0 0-32-16 0z m16 24l8 0 0 16-24 0 0-24 16 0z m424 16l32 0 0-16-32 0z m-248 0l32 0 0-16-32 0z m200 0l32 0 0-16-32 0z m-352 0l32 0 0-16-32 0z m48 0l32 0 0-16-32 0z m48 0l40 0 0-16-40 0z m104 0l32 0 0-16-32 0z m96 0l32 0 0-16-32 0z m-48 0l32 0 0-16-32 0z m200-16l8 0 0-8 16 0 0 24-24 0z m8-72l16 0 0-24-16 0z m0-88l16 0 0-32-16 0z m0-48l16 0 0-24-16 0z m0-40l16 0 0-32-16 0z m0 224l16 0 0-32-16 0z m0-88l16 0 0-32-16 0z"/>
<glyph unicode="&#91;" d="M479 116c8 8 15 17 21 27l-14 7c-5-8-11-16-18-22z m13 231l15 5c-4 11-9 21-16 30l-13-9c6-8 11-17 14-26z m-12 48c-8 8-18 14-28 19l-7-14c9-4 17-10 24-16z m11-231l15-6c4 11 6 23 6 34l0 0-16 0c0-10-2-19-5-28z m-339-60l32 0 0-16-32 0z m64 320l32 0 0-16-32 0z m-16-320l24 0 0-16-24 0z m-32 320l32 0 0-16-32 0z m-65-336l33 0 0 16-32 0z m17 336l32 0 0-16-32 0z m120-320l32 0 0-16-32 0z m-137 304l0 16c-12 0-23-2-34-6l6-15c9 3 18 5 28 5z m233-304l32 0 0-16-32 0z m48 0l0-16 24 0c3 0 6 0 10 0l-2 16c-3 0-5 0-8 0z m-80 320l32 0 0-16-32 0z m-16-320l32 0 0-16-32 0z m-24 320l32 0 0-16-32 0z m88 0l32 0 0-16-32 0z m144-136l16 0 0-32-16 0z m0-48l16 0 0-32-16 0z m-62-149c11 3 22 8 31 14l-8 14c-8-6-17-10-27-12z m-2 314l4 15c-9 3-19 4-28 4l-8 0 0-16 8 0c8 0 16-1 24-3z m-432-173l16 0 0-32-16 0z m52-130c10-6 21-10 32-12l3 16c-9 1-18 5-27 10z m459 233l-16-2c1-4 1-9 1-13l0-16 16 0 0 16c0 5 0 10-1 15z m-511-55l16 0 0-32-16 0z m38-169l10 13c-7 6-14 13-19 21l-13-8c6-10 13-18 22-26z m23 286l-7 14c-10-6-19-13-27-21l12-11c6 7 14 13 22 18z m-61-212c1-11 4-22 8-33l15 6c-4 9-6 19-7 28z m30 183l-13 8c-7-9-11-20-14-31l16-4c2 10 6 19 11 27z m-14-48c0 2 0 5 0 7l-16 1c0-2 0-5 0-8l0-24 16 0z"/>
<glyph unicode="&#93;" d="M256 88c141 0 256 75 256 168 0 93-115 168-256 168-141 0-256-75-256-168 0-93 115-168 256-168z m0 320c132 0 240-68 240-152 0-84-108-152-240-152-132 0-240 68-240 152 0 84 108 152 240 152z"/>
<glyph unicode="&#94;" d="M383 32l127 224-127 224-254 0-127-224 127-224z m-245 432l236 0 118-208-118-208-236 0-118 208z"/>
<glyph unicode="&#95;" d="M512 424l-512 0 0-336 512 0z m-16-320l-480 0 0 304 480 0z"/>
<glyph unicode="&#96;" d="M408 424l-304 0c-57 0-104-47-104-104l0-128c0-57 47-104 104-104l304 0c57 0 104 47 104 104l0 128c0 57-47 104-104 104z m88-232c0-49-39-88-88-88l-304 0c-49 0-88 39-88 88l0 128c0 49 39 88 88 88l304 0c49 0 88-39 88-88z"/>
<glyph unicode="&#123;" d="M11 33l280 112 4 3 64 120-1 11-56 57-12 0-288-289z m285 284l46-46-60-113-241-96z m86-26l128 144 0 12-48 49-12 0-138-138 0-12 57-56z m74 186l37-37-117-132-45 44z"/>
<glyph unicode="&#124;" d="M480 336c18 0 32 14 32 32 0 18-14 32-32 32-15 0-27-10-31-24l-145 0 0 40-96 0 0-40-145 0c-4 14-16 24-31 24-18 0-32-14-32-32 0-18 14-32 32-32 15 0 27 10 31 24l75 0c-83-39-96-139-98-168l-40 0 0-96 96 0 0 96-40 0c1 15 5 48 20 81 26 55 70 84 132 87l0-40 96 0 0 40c62-3 106-32 132-87 15-33 19-66 20-81l-40 0 0-96 96 0 0 96-40 0c-2 29-15 129-98 168l75 0c4-14 16-24 31-24z m0 48c9 0 16-7 16-16 0-9-7-16-16-16-9 0-16 7-16 16 0 9 7 16 16 16z m-448-32c-9 0-16 7-16 16 0 9 7 16 16 16 9 0 16-7 16-16 0-9-7-16-16-16z m48-240l-64 0 0 64 64 0z m208 224l-64 0 0 64 64 0z m208-224l-64 0 0 64 64 0z"/>
<glyph unicode="&#125;" d="M416 472l-320 0 0 40-96 0 0-96 40 0 0-320-40 0 0-96 96 0 0 40 320 0 0-40 96 0 0 96-40 0 0 320 40 0 0 96-96 0z m-400 24l64 0 0-64-64 0z m64-480l-64 0 0 64 64 0z m416 0l-64 0 0 64 64 0z m-40 80l-40 0 0-40-320 0 0 40-40 0 0 320 40 0 0 40 320 0 0-40 40 0z m-24 400l64 0 0-64-64 0z"/>
<glyph unicode="&#126;" d="M96 85l123 123 85 0 0 85 123 123 85 0 0 96-96 0 0-85-123-123-85 0 0-85-123-123-85 0 0-96 96 0z m336 411l64 0 0-64-64 0z m-208-208l64 0 0-64-64 0z m-144-272l-64 0 0 64 64 0z"/>
<glyph unicode="&#92;" d="M96 85l331 331 85 0 0 96-96 0 0-85-331-331-85 0 0-96 96 0z m336 411l64 0 0-64-64 0z m-352-480l-64 0 0 64 64 0z"/>
<glyph unicode="&#57344;" d="M0 16l512 0 0-16-512 0z m240 32l0 432-144 0 0-432z m-128 416l112 0 0-400-112 0z m304-416l0 336-144 0 0-336z m-128 320l112 0 0-304-112 0z"/>
<glyph unicode="&#57345;" d="M416 424l-144 0 0-160-32 0 0 208-144 0 0-208-96 0 0-16 96 0 0-208 144 0 0 208 32 0 0-160 144 0 0 160 96 0 0 16-96 0z m-192-368l-112 0 0 400 112 0z m176 48l-112 0 0 304 112 0z"/>
<glyph unicode="&#57346;" d="M0 512l512 0 0-16-512 0z m240-480l0 432-144 0 0-432z m-128 416l112 0 0-400-112 0z m304 16l-144 0 0-336 144 0z m-16-320l-112 0 0 304 112 0z"/>
<glyph unicode="&#57347;" d="M424 416l-336 0 0-128-88 0 0-16 512 0 0 16-88 0z m-320-128l0 112 304 0 0-112z m368-48l-432 0 0-128-40 0 0-16 512 0 0 16-40 0z m-416-128l0 112 400 0 0-112z"/>
<glyph unicode="&#57348;" d="M88 272l336 0 0 64 88 0 0 16-88 0 0 64-336 0 0-64-88 0 0-16 88 0z m16 128l304 0 0-112-304 0z m-64-304l432 0 0 64 40 0 0 16-40 0 0 64-432 0 0-64-40 0 0-16 40 0z m16 128l400 0 0-112-400 0z"/>
<glyph unicode="&#57349;" d="M40 240l-40 0 0-16 40 0 0-128 432 0 0 128 40 0 0 16z m416-128l-400 0 0 112 400 0z m-368 304l-88 0 0-16 88 0 0-128 336 0 0 128 88 0 0 16z m320-128l-304 0 0 112 304 0z"/>
</font></defs></svg>
